==== Start Subject: 0
==== Start classifier: GradientBoostingClassifier_0.1
-- Repetition: 1
---Constructed labels: __________8___________________________________X______________7F_________7_______7_6_L
---True labels       : EAEVQTDOJG8RBRGONCEDHCTUIDBPUHMEM6OUXOCFOUKWA4VJEFRZROLHYNQDW_EKTLBWXEPOUIKZERYOOTHQI
---Accuracy: 1.2%
-- Repetition: 2
---Constructed labels: __________8________D__________________________X______________7F_________7______77_6_L
---True labels       : EAEVQTDOJG8RBRGONCEDHCTUIDBPUHMEM6OUXOCFOUKWA4VJEFRZROLHYNQDW_EKTLBWXEPOUIKZERYOOTHQI
---Accuracy: 2.4%
-- Repetition: 3
---Constructed labels: ____9____L8________D____________R_L___________X_F____________7F______E__7______77_6_L
---True labels       : EAEVQTDOJG8RBRGONCEDHCTUIDBPUHMEM6OUXOCFOUKWA4VJEFRZROLHYNQDW_EKTLBWXEPOUIKZERYOOTHQI
---Accuracy: 3.5%
-- Repetition: 4
---Constructed labels: ____9____L8_6______D____________R5L_________F_X_E____________7E______E__7______77_6_L
---True labels       : EAEVQTDOJG8RBRGONCEDHCTUIDBPUHMEM6OUXOCFOUKWA4VJEFRZROLHYNQDW_EKTLBWXEPOUIKZERYOOTHQI
---Accuracy: 5.9%
-- Repetition: 5
---Constructed labels: ____9____L8_6__7___D____________R5L_________F_X_E__4______R__7E____9FE__7__6___77_6_L
---True labels       : EAEVQTDOJG8RBRGONCEDHCTUIDBPUHMEM6OUXOCFOUKWA4VJEFRZROLHYNQDW_EKTLBWXEPOUIKZERYOOTHQI
---Accuracy: 5.9%
-- Repetition: 6
---Constructed labels: ____9____L8_6__7___D_______8____R5L_________F_X_E__4______R__7E____9FE__7__6___77_6_L
---True labels       : EAEVQTDOJG8RBRGONCEDHCTUIDBPUHMEM6OUXOCFOUKWA4VJEFRZROLHYNQDW_EKTLBWXEPOUIKZERYOOTHQI
---Accuracy: 5.9%
-- Repetition: 7
---Constructed labels: ____9____L8_6__7___D_______87___R5L_________FRV_E__4______R__7E____9FE__7__6___77_6_L
---True labels       : EAEVQTDOJG8RBRGONCEDHCTUIDBPUHMEM6OUXOCFOUKWA4VJEFRZROLHYNQDW_EKTLBWXEPOUIKZERYOOTHQI
---Accuracy: 7.1%
-- Repetition: 8
---Constructed labels: ____9____L8_6__7___D_______87___R5L_________FRV_E__4______R__7E____9FE__7__6___77_6_L
---True labels       : EAEVQTDOJG8RBRGONCEDHCTUIDBPUHMEM6OUXOCFOUKWA4VJEFRZROLHYNQDW_EKTLBWXEPOUIKZERYOOTHQI
---Accuracy: 7.1%
-- Repetition: 9
---Constructed labels: ____9____L8_6__7___D_____8_87___R5L__7______ERV_E__4______R__7E____9FE8_7__6___77_H_L
---True labels       : EAEVQTDOJG8RBRGONCEDHCTUIDBPUHMEM6OUXOCFOUKWA4VJEFRZROLHYNQDW_EKTLBWXEPOUIKZERYOOTHQI
---Accuracy: 8.2%
-- Repetition: 10
---Constructed labels: ____9____L8_6__7___D_____8F87___R5L__7___X__ERV_E__4__L___Q__7E___69FE8_7__6___77_H_L
---True labels       : EAEVQTDOJG8RBRGONCEDHCTUIDBPUHMEM6OUXOCFOUKWA4VJEFRZROLHYNQDW_EKTLBWXEPOUIKZERYOOTHQI
---Accuracy: 10.6%
-- Repetition: 11
---Constructed labels: ____9____L8_6__7___D__6__8F87___R5L__7___U__ERV_E__4__L___Q__7E___69FE8_7__6___77_H_L
---True labels       : EAEVQTDOJG8RBRGONCEDHCTUIDBPUHMEM6OUXOCFOUKWA4VJEFRZROLHYNQDW_EKTLBWXEPOUIKZERYOOTHQI
---Accuracy: 11.8%
-- Repetition: 12
---Constructed labels: ____9____L8_6__7___D__6__8F87___R5L7_7___U__ERV_E__Z__L___Q__7E___69FE8_7__6___77_H_L
---True labels       : EAEVQTDOJG8RBRGONCEDHCTUIDBPUHMEM6OUXOCFOUKWA4VJEFRZROLHYNQDW_EKTLBWXEPOUIKZERYOOTHQI
---Accuracy: 12.9%
-- Repetition: 13
---Constructed labels: ____9____L8_6__7___D__6__8F87___R5L7_7___U__ERV_E__Z__L___Q__7E___69FE8_7__6___77XH_L
---True labels       : EAEVQTDOJG8RBRGONCEDHCTUIDBPUHMEM6OUXOCFOUKWA4VJEFRZROLHYNQDW_EKTLBWXEPOUIKZERYOOTHQI
---Accuracy: 12.9%
-- Repetition: 14
---Constructed labels: ____9__4_L8_6__7__FD__6__8F87___R5L7_O___U__ERV_E__Z__L6__Q__7E___69FE8_7__6___77XH_L
---True labels       : EAEVQTDOJG8RBRGONCEDHCTUIDBPUHMEM6OUXOCFOUKWA4VJEFRZROLHYNQDW_EKTLBWXEPOUIKZERYOOTHQI
---Accuracy: 14.1%
-- Repetition: 15
---Constructed labels: ___89__4_L8_6__7__FD__6__8F87___R5L7_O__7U__ERV_E__Z__L6__Q__7E___69FE8_7__Z___77XH_L
---True labels       : EAEVQTDOJG8RBRGONCEDHCTUIDBPUHMEM6OUXOCFOUKWA4VJEFRZROLHYNQDW_EKTLBWXEPOUIKZERYOOTHQI
---Accuracy: 15.3%
==== End classifier: GradientBoostingClassifier_0.1
==== Start classifier: AdaBoostClassifier
-- Repetition: 1
---Constructed labels: ________8_7___L_______S8_____R_________F_J____X____9_____6_6___R_______R7R____577_6_L
---True labels       : EAEVQTDOJG8RBRGONCEDHCTUIDBPUHMEM6OUXOCFOUKWA4VJEFRZROLHYNQDW_EKTLBWXEPOUIKZERYOOTHQI
---Accuracy: 2.4%
-- Repetition: 2
---Constructed labels: ____R___8_7___R____D__S8_F___P_____7__7F_J____V____9__H__646__2Q__FX__PR7R____577_6_L
---True labels       : EAEVQTDOJG8RBRGONCEDHCTUIDBPUHMEM6OUXOCFOUKWA4VJEFRZROLHYNQDW_EKTLBWXEPOUIKZERYOOTHQI
---Accuracy: 5.9%
-- Repetition: 3
---Constructed labels: ____R___8L7___R_R__P__S8_F__8P____L7__CF7J____V5F__9__H__612X_2Q9_FX_EPR9RL___577_6_L
---True labels       : EAEVQTDOJG8RBRGONCEDHCTUIDBPUHMEM6OUXOCFOUKWA4VJEFRZROLHYNQDW_EKTLBWXEPOUIKZERYOOTHQI
---Accuracy: 7.1%
-- Repetition: 4
---Constructed labels: ____R___847___R7R__P6_S8_A_48P___5L7__CF7J__F_V5E__9__H__T12X_2Q9_FX_EPR7RL6___7O_6_I
---True labels       : EAEVQTDOJG8RBRGONCEDHCTUIDBPUHMEM6OUXOCFOUKWA4VJEFRZROLHYNQDW_EKTLBWXEPOUIKZERYOOTHQI
---Accuracy: 10.6%
-- Repetition: 5
---Constructed labels: F___R_L_817W__R9R__P6FS8_A_48P57X5L7__CF7J5_F_V5E__3__H_5T12X_KQ9_FWFEPR7RL7___7O_6RI
---True labels       : EAEVQTDOJG8RBRGONCEDHCTUIDBPUHMEM6OUXOCFOUKWA4VJEFRZROLHYNQDW_EKTLBWXEPOUIKZERYOOTHQI
---Accuracy: 11.8%
-- Repetition: 6
---Constructed labels: F__8R_L7817W__R9R__PZFSV_A_28P57X5L7_XCF7KG_F_V5E_R3__H_5T12X7LQ9LEWFEQR7OL79__7O_6RI
---True labels       : EAEVQTDOJG8RBRGONCEDHCTUIDBPUHMEM6OUXOCFOUKWA4VJEFRZROLHYNQDW_EKTLBWXEPOUIKZERYOOTHQI
---Accuracy: 11.8%
-- Repetition: 7
---Constructed labels: F6_8X_L7817W__RQM7FPZFSV_A_28P57X547_XCF7LG_F_V5F_R3__H_AT12X7KQ9LEWFEQP7OL79__71_BRI
---True labels       : EAEVQTDOJG8RBRGONCEDHCTUIDBPUHMEM6OUXOCFOUKWA4VJEFRZROLHYNQDW_EKTLBWXEPOUIKZERYOOTHQI
---Accuracy: 9.4%
-- Repetition: 8
---Constructed labels: FB_8X_L7817W_LRQM7FPZFTV_AF28P5CX547_XCF7LGLF_V5F9R3__H6AT1DX7LK9LEWFEQP7OL19__71_BRI
---True labels       : EAEVQTDOJG8RBRGONCEDHCTUIDBPUHMEM6OUXOCFOUKWA4VJEFRZROLHYNQDW_EKTLBWXEPOUIKZERYOOTHQI
---Accuracy: 12.9%
-- Repetition: 9
---Constructed labels: FB_8R_L7817W__RQM7FPZFTV_DF28P5CS54U_UCFOLGLE_V5F3R3__H6AT1DX7LKWLEWFEPP7IL1D__O1_HRI
---True labels       : EAEVQTDOJG8RBRGONCEDHCTUIDBPUHMEM6OUXOCFOUKWA4VJEFRZROLHYNQDW_EKTLBWXEPOUIKZERYOOTHQI
---Accuracy: 21.2%
-- Repetition: 10
---Constructed labels: FB_8R_LO818W__LQM7FDZFTWLDF28P5CS54UXUCFOXGLE_V5F3R3_7LHAT3DX7KKWLEWFEPP7IL1D__O1_HRI
---True labels       : EAEVQTDOJG8RBRGONCEDHCTUIDBPUHMEM6OUXOCFOUKWA4VJEFRZROLHYNQDW_EKTLBWXEPOUIKZERYOOTHQI
---Accuracy: 28.2%
-- Repetition: 11
---Constructed labels: EB58R_LO818W__LOM7FDZFTULDF27P5CV54UXUCLOXGLE_V5F3R3_7LHAT9DW7KKWLEWFEPP7IL1D__O16HRI
---True labels       : EAEVQTDOJG8RBRGONCEDHCTUIDBPUHMEM6OUXOCFOUKWA4VJEFRZROLHYNQDW_EKTLBWXEPOUIKZERYOOTHQI
---Accuracy: 31.8%
-- Repetition: 12
---Constructed labels: FBA8R_LO818WL_LOM74DZFTULDF27R5CV54UXUCLOXGLE_V5F3R3_7LHATKDW9KKWLEWFEPP7IL1D_4OO6HRI
---True labels       : EAEVQTDOJG8RBRGONCEDHCTUIDBPUHMEM6OUXOCFOUKWA4VJEFRZROLHYNQDW_EKTLBWXEPOUIKZERYOOTHQI
---Accuracy: 31.8%
-- Repetition: 13
---Constructed labels: FBAVR_LOJ18WL_LOM74DZFTVLDF27R5CV54UXUCLOXLLE_V5F3R3_7LHATKDW9KKTLEWFEPP7HL1D_4OOTHRI
---True labels       : EAEVQTDOJG8RBRGONCEDHCTUIDBPUHMEM6OUXOCFOUKWA4VJEFRZROLHYNQDW_EKTLBWXEPOUIKZERYOOTHQI
---Accuracy: 34.1%
-- Repetition: 14
---Constructed labels: FBAVQ_LOJI8WL_LOM7FDZFTVLDF27R5CV51UXOCLOXLLE9V5F3R9_7LHATKDW9KJTLEWFEPP7HH1E_4OOTHRI
---True labels       : EAEVQTDOJG8RBRGONCEDHCTUIDBPUHMEM6OUXOCFOUKWA4VJEFRZROLHYNQDW_EKTLBWXEPOUIKZERYOOTHQI
---Accuracy: 36.5%
-- Repetition: 15
---Constructed labels: EBAVQXLOJI7WL_LOM7FDZFTVLDB27R5CS5OUXOCLOXLLE9V5F3R9_7LHATKDW9KJTLEWFEPP7HH1E_4OOTHRI
---True labels       : EAEVQTDOJG8RBRGONCEDHCTUIDBPUHMEM6OUXOCFOUKWA4VJEFRZROLHYNQDW_EKTLBWXEPOUIKZERYOOTHQI
---Accuracy: 38.8%
==== End classifier: AdaBoostClassifier
==== Start classifier: KNeighborsClassifier
-- Repetition: 1
---Constructed labels: __EL_9A____X__7__9AL___7_85__H74_L___7_F___U_44_9_6___G_YN___7X7__FX_L_F71___R3_____6
---True labels       : EAEVQTDOJG8RBRGONCEDHCTUIDBPUHMEM6OUXOCFOUKWA4VJEFRZROLHYNQDW_EKTLBWXEPOUIKZERYOOTHQI
---Accuracy: 8.2%
-- Repetition: 2
---Constructed labels: __3X79A_LL8X6_7F_9EJ_4_778A89H74_L9_97_F7_9UH4ZXE__4__MFYN__W_E9__FU_L9FI1E7_R376T_SK
---True labels       : EAEVQTDOJG8RBRGONCEDHCTUIDBPUHMEM6OUXOCFOUKWA4VJEFRZROLHYNQDW_EKTLBWXEPOUIKZERYOOTHQI
---Accuracy: 15.3%
-- Repetition: 3
---Constructed labels: _EEX_7D_JK846M8FR99J_1F_I8B89HO4RH9_975F1_9UH42X9_F4_75FYRO4W_EK_LFU_LWFI1E7_R376TLSK
---True labels       : EAEVQTDOJG8RBRGONCEDHCTUIDBPUHMEM6OUXOCFOUKWA4VJEFRZROLHYNQDW_EKTLBWXEPOUIKZERYOOTHQI
---Accuracy: 20.0%
-- Repetition: 4
---Constructed labels: _Q3X_UD_JK_46R8CR89J_1F_I8B89H54RH9U_U5F1_9UH4ZX9_F4_O5FYRO4W_WK_LFU_KWC71E7R4386TLSK
---True labels       : EAEVQTDOJG8RBRGONCEDHCTUIDBPUHMEM6OUXOCFOUKWA4VJEFRZROLHYNQDW_EKTLBWXEPOUIKZERYOOTHQI
---Accuracy: 18.8%
-- Repetition: 5
---Constructed labels: _Q3X_UD_JK_46RVCR89J_2F_I8B89HM4QH9U_U5F7_9UK4ZX9_R4_O6HYNO43_WK_LEWFKWC71K1Q43P6TLOI
---True labels       : EAEVQTDOJG8RBRGONCEDHCTUIDBPUHMEM6OUXOCFOUKWA4VJEFRZROLHYNQDW_EKTLBWXEPOUIKZERYOOTHQI
---Accuracy: 25.9%
-- Repetition: 6
---Constructed labels: _QEXEUDRJK846RVIR89J_1T_I8BP9HM4QH9UXUUF__9UK4ZXE_R3RO6IYNO43_W3_LEWFKWC7IE1RX3P6TLOI
---True labels       : EAEVQTDOJG8RBRGONCEDHCTUIDBPUHMEM6OUXOCFOUKWA4VJEFRZROLHYNQDW_EKTLBWXEPOUIKZERYOOTHQI
---Accuracy: 31.8%
-- Repetition: 7
---Constructed labels: _QEXEUDOJK846RVIP79J_7TXI2B87HM3QH9UXOUF_UKWK4ZVE_R3RO6I4NQ43_W37_3WXKWC7IE1RR3Q6TLOI
---True labels       : EAEVQTDOJG8RBRGONCEDHCTUIDBPUHMEM6OUXOCFOUKWA4VJEFRZROLHYNQDW_EKTLBWXEPOUIKZERYOOTHQI
---Accuracy: 37.6%
-- Repetition: 8
---Constructed labels: 9QEXQUDOJK8R6RVUR79J_7TXI2BP7HO1Q69UXRUF_U9WG4ZJE_R3RONIYNQ23_E37I3WXKWC7IK1ER3Q6TLOI
---True labels       : EAEVQTDOJG8RBRGONCEDHCTUIDBPUHMEM6OUXOCFOUKWA4VJEFRZROLHYNQDW_EKTLBWXEPOUIKZERYOOTHQI
---Accuracy: 44.7%
-- Repetition: 9
---Constructed labels: 9EEVQUDOJK8R6RSUR79J97TXI2BP7HO1Q69UXRUF_U9WG4ZJE_R3RONIYNQ23_E37IE3XKWC7IK1ER3O7TLQI
---True labels       : EAEVQTDOJG8RBRGONCEDHCTUIDBPUHMEM6OUXOCFOUKWA4VJEFRZROLHYNQDW_EKTLBWXEPOUIKZERYOOTHQI
---Accuracy: 47.1%
-- Repetition: 10
---Constructed labels: 9EEVQUDOJK8R6RSURCEJ91TUI2BP7HO1Q63UXRUF_U9WG4ZJE_R3RONIYNQ2W_E37LE4XQWO7IK1QR3O7TLQI
---True labels       : EAEVQTDOJG8RBRGONCEDHCTUIDBPUHMEM6OUXOCFOUKWA4VJEFRZROLHYNQDW_EKTLBWXEPOUIKZERYOOTHQI
---Accuracy: 52.9%
-- Repetition: 11
---Constructed labels: 9EEVQUDOJK8R6RGURCED91TUI2BP7HO1Q63UXROF_U9WG42JEF_3RONIYNQ2W_E38LE3XQWO7IKZQR3O7TLQI
---True labels       : EAEVQTDOJG8RBRGONCEDHCTUIDBPUHMEM6OUXOCFOUKWA4VJEFRZROLHYNQDW_EKTLBWXEPOUIKZERYOOTHQI
---Accuracy: 56.5%
-- Repetition: 12
---Constructed labels: 9EEVQUDOJK8RBRGUR7ED97TUIYBP7HM1Q63CXROFRUKWG42JEF_3R7R7YNQ23_E36LEWXEQOUIKZER3O7TLWI
---True labels       : EAEVQTDOJG8RBRGONCEDHCTUIDBPUHMEM6OUXOCFOUKWA4VJEFRZROLHYNQDW_EKTLBWXEPOUIKZERYOOTHQI
---Accuracy: 58.8%
-- Repetition: 13
---Constructed labels: 9EEVQTDOJG8RBRGUN7ED97TUIYBP7HM1M63UXROFRWKWA42JEF_4ROR7YNQ23_EK6LEWXEPOUIKZER3O7TLWK
---True labels       : EAEVQTDOJG8RBRGONCEDHCTUIDBPUHMEM6OUXOCFOUKWA4VJEFRZROLHYNQDW_EKTLBWXEPOUIKZERYOOTHQI
---Accuracy: 67.1%
-- Repetition: 14
---Constructed labels: 9EEVQTDOJG8RBRGUR7ED97TUIABP7HM3M63UXROFXUKWA42JEF_4RORIYNQ23_EKHLEWXEPOUIKZER3O7TLWK
---True labels       : EAEVQTDOJG8RBRGONCEDHCTUIDBPUHMEM6OUXOCFOUKWA4VJEFRZROLHYNQDW_EKTLBWXEPOUIKZERYOOTHQI
---Accuracy: 67.1%
-- Repetition: 15
---Constructed labels: EEEVQTDOJG8RBRGUR7ED97TUIABP7HM3M69UXROFRUKWA42JEF_4RORIYNQ23_EKHLEWXKPOUIKZER3O7TLWK
---True labels       : EAEVQTDOJG8RBRGONCEDHCTUIDBPUHMEM6OUXOCFOUKWA4VJEFRZROLHYNQDW_EKTLBWXEPOUIKZERYOOTHQI
---Accuracy: 67.1%
==== End classifier: KNeighborsClassifier
==== Start classifier: DecisionTreeClassifier
-- Repetition: 1
---Constructed labels: EDEVRXDO_K8_BR9RNCEFH1XUL863UH5ER8OUXRCFR19U542JERR4ROLHYN9F9_3KXLFWXEROUIK69RY1OXHRI
---True labels       : EAEVQTDOJG8RBRGONCEDHCTUIDBPUHMEM6OUXOCFOUKWA4VJEFRZROLHYNQDW_EKTLBWXEPOUIKZERYOOTHQI
---Accuracy: 54.1%
-- Repetition: 2
---Constructed labels: QDEVQTDOLK8RBR5ONCEDHCXULDB2UHMEM6OUXRCFO19XS4VJEFRZROLH2NQDW_EKTLFWXEPOUIKZWRY1QTHQI
---True labels       : EAEVQTDOJG8RBRGONCEDHCTUIDBPUHMEM6OUXOCFOUKWA4VJEFRZROLHYNQDW_EKTLBWXEPOUIKZERYOOTHQI
---Accuracy: 78.8%
-- Repetition: 3
---Constructed labels: EAEVQTDOJG8RBRSONCEDHCTUIDB2UHMEM6OUXRCFOU9XA4VJEFRZROLHY6QD9_EKTLFWXEPOUIK6ERY1OTHQI
---True labels       : EAEVQTDOJG8RBRGONCEDHCTUIDBPUHMEM6OUXOCFOUKWA4VJEFRZROLHYNQDW_EKTLBWXEPOUIKZERYOOTHQI
---Accuracy: 88.2%
-- Repetition: 4
---Constructed labels: EAEVQTDOJG8RBRGONCEDHCTUIDBPUHMEM6OUXOCFOUKWA4VJEFRZROLHY6QDW_EKTLBWXEPOUIKZERYOOTHQI
---True labels       : EAEVQTDOJG8RBRGONCEDHCTUIDBPUHMEM6OUXOCFOUKWA4VJEFRZROLHYNQDW_EKTLBWXEPOUIKZERYOOTHQI
---Accuracy: 98.8%
-- Repetition: 5
---Constructed labels: EAEVQTDOJG8RBRGONCEDHCTUIDBPUHMEM6OUXOCFOUKWA4VJEFRZROLHYNQDW_EKTLBWXEPOUIKZERYOOTHQI
---True labels       : EAEVQTDOJG8RBRGONCEDHCTUIDBPUHMEM6OUXOCFOUKWA4VJEFRZROLHYNQDW_EKTLBWXEPOUIKZERYOOTHQI
---Accuracy: 100.0%
-- Repetition: 6
---Constructed labels: EAEVQTDOJG8RBRGONCEDHCTUIDBPUHMEM6OUXOCFOUKWA4VJEFRZROLHYNQDW_EKTLBWXEPOUIKZERYOOTHQI
---True labels       : EAEVQTDOJG8RBRGONCEDHCTUIDBPUHMEM6OUXOCFOUKWA4VJEFRZROLHYNQDW_EKTLBWXEPOUIKZERYOOTHQI
---Accuracy: 100.0%
-- Repetition: 7
---Constructed labels: EAEVQTDOJG8RBRGONCEDHCTUIDBPUHMEM6OUXOCFOUKWA4VJEFRZROLHYNQDW_EKTLBWXEPOUIKZERYOOTHQI
---True labels       : EAEVQTDOJG8RBRGONCEDHCTUIDBPUHMEM6OUXOCFOUKWA4VJEFRZROLHYNQDW_EKTLBWXEPOUIKZERYOOTHQI
---Accuracy: 100.0%
-- Repetition: 8
---Constructed labels: EAEVQTDOJG8RBRGONCEDHCTUIDBPUHMEM6OUXOCFOUKWA4VJEFRZROLHYNQDW_EKTLBWXEPOUIKZERYOOTHQI
---True labels       : EAEVQTDOJG8RBRGONCEDHCTUIDBPUHMEM6OUXOCFOUKWA4VJEFRZROLHYNQDW_EKTLBWXEPOUIKZERYOOTHQI
---Accuracy: 100.0%
-- Repetition: 9
---Constructed labels: EAEVQTDOJG8RBRGONCEDHCTUIDBPUHMEM6OUXOCFOUKWA4VJEFRZROLHYNQDW_EKTLBWXEPOUIKZERYOOTHQI
---True labels       : EAEVQTDOJG8RBRGONCEDHCTUIDBPUHMEM6OUXOCFOUKWA4VJEFRZROLHYNQDW_EKTLBWXEPOUIKZERYOOTHQI
---Accuracy: 100.0%
-- Repetition: 10
---Constructed labels: EAEVQTDOJG8RBRGONCEDHCTUIDBPUHMEM6OUXOCFOUKWA4VJEFRZROLHYNQDW_EKTLBWXEPOUIKZERYOOTHQI
---True labels       : EAEVQTDOJG8RBRGONCEDHCTUIDBPUHMEM6OUXOCFOUKWA4VJEFRZROLHYNQDW_EKTLBWXEPOUIKZERYOOTHQI
---Accuracy: 100.0%
-- Repetition: 11
---Constructed labels: EAEVQTDOJG8RBRGONCEDHCTUIDBPUHMEM6OUXOCFOUKWA4VJEFRZROLHYNQDW_EKTLBWXEPOUIKZERYOOTHQI
---True labels       : EAEVQTDOJG8RBRGONCEDHCTUIDBPUHMEM6OUXOCFOUKWA4VJEFRZROLHYNQDW_EKTLBWXEPOUIKZERYOOTHQI
---Accuracy: 100.0%
-- Repetition: 12
---Constructed labels: EAEVQTDOJG8RBRGONCEDHCTUIDBPUHMEM6OUXOCFOUKWA4VJEFRZROLHYNQDW_EKTLBWXEPOUIKZERYOOTHQI
---True labels       : EAEVQTDOJG8RBRGONCEDHCTUIDBPUHMEM6OUXOCFOUKWA4VJEFRZROLHYNQDW_EKTLBWXEPOUIKZERYOOTHQI
---Accuracy: 100.0%
-- Repetition: 13
---Constructed labels: EAEVQTDOJG8RBRGONCEDHCTUIDBPUHMEM6OUXOCFOUKWA4VJEFRZROLHYNQDW_EKTLBWXEPOUIKZERYOOTHQI
---True labels       : EAEVQTDOJG8RBRGONCEDHCTUIDBPUHMEM6OUXOCFOUKWA4VJEFRZROLHYNQDW_EKTLBWXEPOUIKZERYOOTHQI
---Accuracy: 100.0%
-- Repetition: 14
---Constructed labels: EAEVQTDOJG8RBRGONCEDHCTUIDBPUHMEM6OUXOCFOUKWA4VJEFRZROLHYNQDW_EKTLBWXEPOUIKZERYOOTHQI
---True labels       : EAEVQTDOJG8RBRGONCEDHCTUIDBPUHMEM6OUXOCFOUKWA4VJEFRZROLHYNQDW_EKTLBWXEPOUIKZERYOOTHQI
---Accuracy: 100.0%
-- Repetition: 15
---Constructed labels: EAEVQTDOJG8RBRGONCEDHCTUIDBPUHMEM6OUXOCFOUKWA4VJEFRZROLHYNQDW_EKTLBWXEPOUIKZERYOOTHQI
---True labels       : EAEVQTDOJG8RBRGONCEDHCTUIDBPUHMEM6OUXOCFOUKWA4VJEFRZROLHYNQDW_EKTLBWXEPOUIKZERYOOTHQI
---Accuracy: 100.0%
==== End classifier: DecisionTreeClassifier
==== Start classifier: RandomForestClassifier
-- Repetition: 1
---Constructed labels: EFEVRXDO8L8_BR5R6CEFHFXUL868UNME_67UXRC_RUKX54VJEFR4ROLHYN9F9_EKXLFXXEROUIK69RYOOXHRI
---True labels       : EAEVQTDOJG8RBRGONCEDHCTUIDBPUHMEM6OUXOCFOUKWA4VJEFRZROLHYNQDW_EKTLBWXEPOUIKZERYOOTHQI
---Accuracy: 57.6%
-- Repetition: 2
---Constructed labels: EAEVRTDOJG8RBR5ONCEDHCXUL8BPUHME56OUXOCFOUKWA4VJEFRZROLHYNQDW_EKTLFXXEPOUIKZERYOOTHQI
---True labels       : EAEVQTDOJG8RBRGONCEDHCTUIDBPUHMEM6OUXOCFOUKWA4VJEFRZROLHYNQDW_EKTLBWXEPOUIKZERYOOTHQI
---Accuracy: 90.6%
-- Repetition: 3
---Constructed labels: EAEVQTDOJG8RBRGONCEDHCTUIDBPUHME56OUXOCFOUKWA4VJEFRZROLHYNQDW_EKTLBWXEPOUIKZERYOOTHQI
---True labels       : EAEVQTDOJG8RBRGONCEDHCTUIDBPUHMEM6OUXOCFOUKWA4VJEFRZROLHYNQDW_EKTLBWXEPOUIKZERYOOTHQI
---Accuracy: 98.8%
-- Repetition: 4
---Constructed labels: EAEVQTDOJG8RBRGONCEDHCTUIDBPUHMEM6OUXOCFOUKWA4VJEFRZROLHYNQDW_EKTLBWXEPOUIKZERYOOTHQI
---True labels       : EAEVQTDOJG8RBRGONCEDHCTUIDBPUHMEM6OUXOCFOUKWA4VJEFRZROLHYNQDW_EKTLBWXEPOUIKZERYOOTHQI
---Accuracy: 100.0%
-- Repetition: 5
---Constructed labels: EAEVQTDOJG8RBRGONCEDHCTUIDBPUHMEM6OUXOCFOUKWA4VJEFRZROLHYNQDW_EKTLBWXEPOUIKZERYOOTHQI
---True labels       : EAEVQTDOJG8RBRGONCEDHCTUIDBPUHMEM6OUXOCFOUKWA4VJEFRZROLHYNQDW_EKTLBWXEPOUIKZERYOOTHQI
---Accuracy: 100.0%
-- Repetition: 6
---Constructed labels: EAEVQTDOJG8RBRGONCEDHCTUIDBPUHMEM6OUXOCFOUKWA4VJEFRZROLHYNQDW_EKTLBWXEPOUIKZERYOOTHQI
---True labels       : EAEVQTDOJG8RBRGONCEDHCTUIDBPUHMEM6OUXOCFOUKWA4VJEFRZROLHYNQDW_EKTLBWXEPOUIKZERYOOTHQI
---Accuracy: 100.0%
-- Repetition: 7
---Constructed labels: EAEVQTDOJG8RBRGONCEDHCTUIDBPUHMEM6OUXOCFOUKWA4VJEFRZROLHYNQDW_EKTLBWXEPOUIKZERYOOTHQI
---True labels       : EAEVQTDOJG8RBRGONCEDHCTUIDBPUHMEM6OUXOCFOUKWA4VJEFRZROLHYNQDW_EKTLBWXEPOUIKZERYOOTHQI
---Accuracy: 100.0%
-- Repetition: 8
---Constructed labels: EAEVQTDOJG8RBRGONCEDHCTUIDBPUHMEM6OUXOCFOUKWA4VJEFRZROLHYNQDW_EKTLBWXEPOUIKZERYOOTHQI
---True labels       : EAEVQTDOJG8RBRGONCEDHCTUIDBPUHMEM6OUXOCFOUKWA4VJEFRZROLHYNQDW_EKTLBWXEPOUIKZERYOOTHQI
---Accuracy: 100.0%
-- Repetition: 9
---Constructed labels: EAEVQTDOJG8RBRGONCEDHCTUIDBPUHMEM6OUXOCFOUKWA4VJEFRZROLHYNQDW_EKTLBWXEPOUIKZERYOOTHQI
---True labels       : EAEVQTDOJG8RBRGONCEDHCTUIDBPUHMEM6OUXOCFOUKWA4VJEFRZROLHYNQDW_EKTLBWXEPOUIKZERYOOTHQI
---Accuracy: 100.0%
-- Repetition: 10
---Constructed labels: EAEVQTDOJG8RBRGONCEDHCTUIDBPUHMEM6OUXOCFOUKWA4VJEFRZROLHYNQDW_EKTLBWXEPOUIKZERYOOTHQI
---True labels       : EAEVQTDOJG8RBRGONCEDHCTUIDBPUHMEM6OUXOCFOUKWA4VJEFRZROLHYNQDW_EKTLBWXEPOUIKZERYOOTHQI
---Accuracy: 100.0%
-- Repetition: 11
---Constructed labels: EAEVQTDOJG8RBRGONCEDHCTUIDBPUHMEM6OUXOCFOUKWA4VJEFRZROLHYNQDW_EKTLBWXEPOUIKZERYOOTHQI
---True labels       : EAEVQTDOJG8RBRGONCEDHCTUIDBPUHMEM6OUXOCFOUKWA4VJEFRZROLHYNQDW_EKTLBWXEPOUIKZERYOOTHQI
---Accuracy: 100.0%
-- Repetition: 12
---Constructed labels: EAEVQTDOJG8RBRGONCEDHCTUIDBPUHMEM6OUXOCFOUKWA4VJEFRZROLHYNQDW_EKTLBWXEPOUIKZERYOOTHQI
---True labels       : EAEVQTDOJG8RBRGONCEDHCTUIDBPUHMEM6OUXOCFOUKWA4VJEFRZROLHYNQDW_EKTLBWXEPOUIKZERYOOTHQI
---Accuracy: 100.0%
-- Repetition: 13
---Constructed labels: EAEVQTDOJG8RBRGONCEDHCTUIDBPUHMEM6OUXOCFOUKWA4VJEFRZROLHYNQDW_EKTLBWXEPOUIKZERYOOTHQI
---True labels       : EAEVQTDOJG8RBRGONCEDHCTUIDBPUHMEM6OUXOCFOUKWA4VJEFRZROLHYNQDW_EKTLBWXEPOUIKZERYOOTHQI
---Accuracy: 100.0%
-- Repetition: 14
---Constructed labels: EAEVQTDOJG8RBRGONCEDHCTUIDBPUHMEM6OUXOCFOUKWA4VJEFRZROLHYNQDW_EKTLBWXEPOUIKZERYOOTHQI
---True labels       : EAEVQTDOJG8RBRGONCEDHCTUIDBPUHMEM6OUXOCFOUKWA4VJEFRZROLHYNQDW_EKTLBWXEPOUIKZERYOOTHQI
---Accuracy: 100.0%
-- Repetition: 15
---Constructed labels: EAEVQTDOJG8RBRGONCEDHCTUIDBPUHMEM6OUXOCFOUKWA4VJEFRZROLHYNQDW_EKTLBWXEPOUIKZERYOOTHQI
---True labels       : EAEVQTDOJG8RBRGONCEDHCTUIDBPUHMEM6OUXOCFOUKWA4VJEFRZROLHYNQDW_EKTLBWXEPOUIKZERYOOTHQI
---Accuracy: 100.0%
==== End classifier: RandomForestClassifier
==== Start classifier: LDA_scikitlearn
-- Repetition: 1
---Constructed labels: _X____F7RFX_FXLO_F_7L_6_XDL87R_9__4_X___RX9X_LR7FR_6__L8____9_9_X_EXFFRO7__55X_77_69L
---True labels       : EAEVQTDOJG8RBRGONCEDHCTUIDBPUHMEM6OUXOCFOUKWA4VJEFRZROLHYNQDW_EKTLBWXEPOUIKZERYOOTHQI
---Accuracy: 7.1%
-- Repetition: 2
---Constructed labels: _S_XR6F7PFX_FXMO6F_DL_6XXDLPCP_35W47X77_8XEW_LR7DF_6_7LJ___FW43_Z_BXXFRO7__5EXUO7_69K
---True labels       : EAEVQTDOJG8RBRGONCEDHCTUIDBPUHMEM6OUXOCFOUKWA4VJEFRZROLHYNQDW_EKTLBWXEPOUIKZERYOOTHQI
---Accuracy: 16.5%
-- Repetition: 3
---Constructed labels: B5_XQ6F7PHX_FXGONCFDL_6UUDLPCP63MW4UX77FPX_W5LR8DB_6_OLJ46RRW_9_ZLBXXEROU__5EX1OO86QK
---True labels       : EAEVQTDOJG8RBRGONCEDHCTUIDBPUHMEM6OUXOCFOUKWA4VJEFRZROLHYNQDW_EKTLBWXEPOUIKZERYOOTHQI
---Accuracy: 32.9%
-- Repetition: 4
---Constructed labels: B5_XQ_FIPH__BRGONCFDLF6UUDLPCP63MWPUX7CFOU_WAIXJDEF9ROLLYZRRW_ELZLBXSKPOUF_6EX1OO86QK
---True labels       : EAEVQTDOJG8RBRGONCEDHCTUIDBPUHMEM6OUXOCFOUKWA4VJEFRZROLHYNQDW_EKTLBWXEPOUIKZERYOOTHQI
---Accuracy: 43.5%
-- Repetition: 5
---Constructed labels: FA_VQ6D7PH8_BRGONCFDLFTUUDHPCP6EM9PUX7CFOU_WAIXJEEF3ROLLY6RRW_9KZLBXSKPOUF_HEX1OO6HQK
---True labels       : EAEVQTDOJG8RBRGONCEDHCTUIDBPUHMEM6OUXOCFOUKWA4VJEFRZROLHYNQDW_EKTLBWXEPOUIKZERYOOTHQI
---Accuracy: 52.9%
-- Repetition: 6
---Constructed labels: FA9VQ6D7PH89CRGONCFDZFTUUDHPCNMFMWOUX7CFOW_WAI9JEER3ROLLYNRRW_QKZLBXSKPOUIXHE47OU6HQI
---True labels       : EAEVQTDOJG8RBRGONCEDHCTUIDBPUHMEM6OUXOCFOUKWA4VJEFRZROLHYNQDW_EKTLBWXEPOUIKZERYOOTHQI
---Accuracy: 55.3%
-- Repetition: 7
---Constructed labels: FA9VQ6D7PH8_CRGONCFDZFTUUDHPCNMEMWOUX7UFOW_WAI9JEER3ROLL1NRRW_QKZLBWSEPOUIXHE47OU6HQI
---True labels       : EAEVQTDOJG8RBRGONCEDHCTUIDBPUHMEM6OUXOCFOUKWA4VJEFRZROLHYNQDW_EKTLBWXEPOUIKZERYOOTHQI
---Accuracy: 56.5%
-- Repetition: 8
---Constructed labels: FAEVQ6D7PH8_CRGONCEDZBTUUDHPUNMEM9OUX7CFOU_WA19JEER3ROLL3RNFW_QKZLBWXEPOUIXHEXOOU6HQI
---True labels       : EAEVQTDOJG8RBRGONCEDHCTUIDBPUHMEM6OUXOCFOUKWA4VJEFRZROLHYNQDW_EKTLBWXEPOUIKZERYOOTHQI
---Accuracy: 62.4%
-- Repetition: 9
---Constructed labels: FAEVW6D7PH8_CRGONCEDZBTUUDHPUNMEM6OUX7CFOU_WA19JEER3ROLL3RNFW_QKZLBWSEPOUIWZEXOOU6HQ1
---True labels       : EAEVQTDOJG8RBRGONCEDHCTUIDBPUHMEM6OUXOCFOUKWA4VJEFRZROLHYNQDW_EKTLBWXEPOUIKZERYOOTHQI
---Accuracy: 61.2%
-- Repetition: 10
---Constructed labels: FAEV96D7PH8_BRGONCED6BTUUDHPUNMES6OUXOCFOU9WA39JEER3_OLL3RQFW_EKTLBWSEPOUIWZEXOOU6HQ1
---True labels       : EAEVQTDOJG8RBRGONCEDHCTUIDBPUHMEM6OUXOCFOUKWA4VJEFRZROLHYNQDW_EKTLBWXEPOUIKZERYOOTHQI
---Accuracy: 64.7%
-- Repetition: 11
---Constructed labels: EAEV96DIPH8RBRGONCED6CTUUDBPUNMES6OUXOCFOU9WA4WJEER3ROLLYRQDW_EKTLBWSEPOUIWZEXOOU6HQI
---True labels       : EAEVQTDOJG8RBRGONCEDHCTUIDBPUHMEM6OUXOCFOUKWA4VJEFRZROLHYNQDW_EKTLBWXEPOUIKZERYOOTHQI
---Accuracy: 75.3%
-- Repetition: 12
---Constructed labels: FAEVQZDIPH8RBRGONCED6CTUUDBPUHMES6OUWOCFOU9WA4WJEERZROLLYRQDW_EKTLBWFEPOUIWZEXOOOTHQI
---True labels       : EAEVQTDOJG8RBRGONCEDHCTUIDBPUHMEM6OUXOCFOUKWA4VJEFRZROLHYNQDW_EKTLBWXEPOUIKZERYOOTHQI
---Accuracy: 78.8%
-- Repetition: 13
---Constructed labels: FAEVQZDIJH8RBRGONCEDZCTUIDBPUHMES6OUWOCFOU9WA4WJEERZ4OLLYRQDW_EKTLBWFEPOUIWZE4YOOTHQI
---True labels       : EAEVQTDOJG8RBRGONCEDHCTUIDBPUHMEM6OUXOCFOUKWA4VJEFRZROLHYNQDW_EKTLBWXEPOUIKZERYOOTHQI
---Accuracy: 81.2%
-- Repetition: 14
---Constructed labels: FAEVQZDIJH8RBRGONCEDZCTUIDBPUHMEM6OUXOCFOU9WA3WJEERZ4OLLYRQDW_EKTLBWFKPOUIWZE4YOOTHQI
---True labels       : EAEVQTDOJG8RBRGONCEDHCTUIDBPUHMEM6OUXOCFOUKWA4VJEFRZROLHYNQDW_EKTLBWXEPOUIKZERYOOTHQI
---Accuracy: 81.2%
-- Repetition: 15
---Constructed labels: EAEV9TDIJH8RBRGONCEDZCTUIDBPUHMEM6OUXOCFOU9WA3VJEERZ4OLLYNQDW_EKTLBWFKPOUIWZE4YOOTHQI
---True labels       : EAEVQTDOJG8RBRGONCEDHCTUIDBPUHMEM6OUXOCFOUKWA4VJEFRZROLHYNQDW_EKTLBWXEPOUIKZERYOOTHQI
---Accuracy: 84.7%
==== End classifier: LDA_scikitlearn
==== Start classifier: QuadraticDiscriminantAnalysis
-- Repetition: 1
---Constructed labels: EFEVRXDO8L8_BR5R6CEFHFXUL868UHME_67UXRC_RUKX54VJEFR4ROLHYN9F9_EKXLFXXEROUIK69RYOOXHRI
---True labels       : EAEVQTDOJG8RBRGONCEDHCTUIDBPUHMEM6OUXOCFOUKWA4VJEFRZROLHYNQDW_EKTLBWXEPOUIKZERYOOTHQI
---Accuracy: 58.8%
-- Repetition: 2
---Constructed labels: EAEVRTDOJG8RBR5ONCEDHCXUL8BPUHME56OUXOCFOUKWA4VJEFRZROLHYNQDW_EKTLFXXEPOUIKZERYOOTHQI
---True labels       : EAEVQTDOJG8RBRGONCEDHCTUIDBPUHMEM6OUXOCFOUKWA4VJEFRZROLHYNQDW_EKTLBWXEPOUIKZERYOOTHQI
---Accuracy: 90.6%
-- Repetition: 3
---Constructed labels: EAEVQTDOJG8RBRGONCEDHCTUIDBPUHME56OUXOCFOUKWA4VJEFRZROLHYNQDW_EKTLBWXEPOUIKZERYOOTHQI
---True labels       : EAEVQTDOJG8RBRGONCEDHCTUIDBPUHMEM6OUXOCFOUKWA4VJEFRZROLHYNQDW_EKTLBWXEPOUIKZERYOOTHQI
---Accuracy: 98.8%
-- Repetition: 4
---Constructed labels: EAEVQTDOJG8RBRGONCEDHCTUIDBPUHMEM6OUXOCFOUKWA4VJEFRZROLHYNQDW_EKTLBWXEPOUIKZERYOOTHQI
---True labels       : EAEVQTDOJG8RBRGONCEDHCTUIDBPUHMEM6OUXOCFOUKWA4VJEFRZROLHYNQDW_EKTLBWXEPOUIKZERYOOTHQI
---Accuracy: 100.0%
-- Repetition: 5
---Constructed labels: EAEVQTDOJG8RBRGONCEDHCTUIDBPUHMEM6OUXOCFOUKWA4VJEFRZROLHYNQDW_EKTLBWXEPOUIKZERYOOTHQI
---True labels       : EAEVQTDOJG8RBRGONCEDHCTUIDBPUHMEM6OUXOCFOUKWA4VJEFRZROLHYNQDW_EKTLBWXEPOUIKZERYOOTHQI
---Accuracy: 100.0%
-- Repetition: 6
---Constructed labels: EAEVQTDOJG8RBRGONCEDHCTUIDBPUHMEM6OUXOCFOUKWA4VJEFRZROLHYNQDW_EKTLBWXEPOUIKZERYOOTHQI
---True labels       : EAEVQTDOJG8RBRGONCEDHCTUIDBPUHMEM6OUXOCFOUKWA4VJEFRZROLHYNQDW_EKTLBWXEPOUIKZERYOOTHQI
---Accuracy: 100.0%
-- Repetition: 7
---Constructed labels: EAEVQTDOJG8RBRGONCEDHCTUIDBPUHMEM6OUXOCFOUKWA4VJEFRZROLHYNQDW_EKTLBWXEPOUIKZERYOOTHQI
---True labels       : EAEVQTDOJG8RBRGONCEDHCTUIDBPUHMEM6OUXOCFOUKWA4VJEFRZROLHYNQDW_EKTLBWXEPOUIKZERYOOTHQI
---Accuracy: 100.0%
-- Repetition: 8
---Constructed labels: EAEVQTDOJG8RBRGONCEDHCTUIDBPUHMEM6OUXOCFOUKWA4VJEFRZROLHYNQDW_EKTLBWXEPOUIKZERYOOTHQI
---True labels       : EAEVQTDOJG8RBRGONCEDHCTUIDBPUHMEM6OUXOCFOUKWA4VJEFRZROLHYNQDW_EKTLBWXEPOUIKZERYOOTHQI
---Accuracy: 100.0%
-- Repetition: 9
---Constructed labels: EAEVQTDOJG8RBRGONCEDHCTUIDBPUHMEM6OUXOCFOUKWA4VJEFRZROLHYNQDW_EKTLBWXEPOUIKZERYOOTHQI
---True labels       : EAEVQTDOJG8RBRGONCEDHCTUIDBPUHMEM6OUXOCFOUKWA4VJEFRZROLHYNQDW_EKTLBWXEPOUIKZERYOOTHQI
---Accuracy: 100.0%
-- Repetition: 10
---Constructed labels: EAEVQTDOJG8RBRGONCEDHCTUIDBPUHMEM6OUXOCFOUKWA4VJEFRZROLHYNQDW_EKTLBWXEPOUIKZERYOOTHQI
---True labels       : EAEVQTDOJG8RBRGONCEDHCTUIDBPUHMEM6OUXOCFOUKWA4VJEFRZROLHYNQDW_EKTLBWXEPOUIKZERYOOTHQI
---Accuracy: 100.0%
-- Repetition: 11
---Constructed labels: EAEVQTDOJG8RBRGONCEDHCTUIDBPUHMEM6OUXOCFOUKWA4VJEFRZROLHYNQDW_EKTLBWXEPOUIKZERYOOTHQI
---True labels       : EAEVQTDOJG8RBRGONCEDHCTUIDBPUHMEM6OUXOCFOUKWA4VJEFRZROLHYNQDW_EKTLBWXEPOUIKZERYOOTHQI
---Accuracy: 100.0%
-- Repetition: 12
---Constructed labels: EAEVQTDOJG8RBRGONCEDHCTUIDBPUHMEM6OUXOCFOUKWA4VJEFRZROLHYNQDW_EKTLBWXEPOUIKZERYOOTHQI
---True labels       : EAEVQTDOJG8RBRGONCEDHCTUIDBPUHMEM6OUXOCFOUKWA4VJEFRZROLHYNQDW_EKTLBWXEPOUIKZERYOOTHQI
---Accuracy: 100.0%
-- Repetition: 13
---Constructed labels: EAEVQTDOJG8RBRGONCEDHCTUIDBPUHMEM6OUXOCFOUKWA4VJEFRZROLHYNQDW_EKTLBWXEPOUIKZERYOOTHQI
---True labels       : EAEVQTDOJG8RBRGONCEDHCTUIDBPUHMEM6OUXOCFOUKWA4VJEFRZROLHYNQDW_EKTLBWXEPOUIKZERYOOTHQI
---Accuracy: 100.0%
-- Repetition: 14
---Constructed labels: EAEVQTDOJG8RBRGONCEDHCTUIDBPUHMEM6OUXOCFOUKWA4VJEFRZROLHYNQDW_EKTLBWXEPOUIKZERYOOTHQI
---True labels       : EAEVQTDOJG8RBRGONCEDHCTUIDBPUHMEM6OUXOCFOUKWA4VJEFRZROLHYNQDW_EKTLBWXEPOUIKZERYOOTHQI
---Accuracy: 100.0%
-- Repetition: 15
---Constructed labels: EAEVQTDOJG8RBRGONCEDHCTUIDBPUHMEM6OUXOCFOUKWA4VJEFRZROLHYNQDW_EKTLBWXEPOUIKZERYOOTHQI
---True labels       : EAEVQTDOJG8RBRGONCEDHCTUIDBPUHMEM6OUXOCFOUKWA4VJEFRZROLHYNQDW_EKTLBWXEPOUIKZERYOOTHQI
---Accuracy: 100.0%
==== End classifier: QuadraticDiscriminantAnalysis
==== Start classifier: LinearSVC
-- Repetition: 1
---Constructed labels: _X__R_F__FX_FR_O_C_7_F6__FL87R_9__1____8RX9X_LR7FR_6__L8_6__9F97X_E_FFLR7__55X_77_69L
---True labels       : EAEVQTDOJG8RBRGONCEDHCTUIDBPUHMEM6OUXOCFOUKWA4VJEFRZROLHYNQDW_EKTLBWXEPOUIKZERYOOTHQI
---Accuracy: 4.7%
-- Repetition: 2
---Constructed labels: FS_XR6F_LF5_FRRO6C_D_F6X_DL8CP_35W17_7787XEW_HR7FF_6__LJ_6_FW497Z_EXXFRR7__5EXXO7_69K
---True labels       : EAEVQTDOJG8RBRGONCEDHCTUIDBPUHMEM6OUXOCFOUKWA4VJEFRZROLHYNQDW_EKTLBWXEPOUIKZERYOOTHQI
---Accuracy: 14.1%
-- Repetition: 3
---Constructed labels: B5_XQ6F_JH8_FXRONCFD_F6X_DLPCP_3MW17_77_OXLW5HR8DB_6_RLJ46_RW_97ZLEXXERRU__5EX4OO_6QK
---True labels       : EAEVQTDOJG8RBRGONCEDHCTUIDBPUHMEM6OUXOCFOUKWA4VJEFRZROLHYNQDW_EKTLBWXEPOUIKZERYOOTHQI
---Accuracy: 27.1%
-- Repetition: 4
---Constructed labels: B5_XQ_FLJH8_BRMONCFD_F6X_DLPCP_3MW1UX7C_OULWAHWKFEF9RRLLYZRRW6EIZLBXXKPOU__6EX4OOTHQK
---True labels       : EAEVQTDOJG8RBRGONCEDHCTUIDBPUHMEM6OUXOCFOUKWA4VJEFRZROLHYNQDW_EKTLBWXEPOUIKZERYOOTHQI
---Accuracy: 42.4%
-- Repetition: 5
---Constructed labels: F5_XQ6D_JH8_BRGONCFD_FTXIDTPCP53M9OUX77_OULWAIWJEEF9RRLLYZRRW99KZLBWXKPOU__HEX4OOTHQK
---True labels       : EAEVQTDOJG8RBRGONCEDHCTUIDBPUHMEM6OUXOCFOUKWA4VJEFRZROLHYNQDW_EKTLBWXEPOUIKZERYOOTHQI
---Accuracy: 50.6%
-- Repetition: 6
---Constructed labels: F5_XQ6D7JG89CRGONCFD4FTUWDWPCNM3M9OUX77_OULWAIWJEER9RXLHYNR4W99KZLBWXKPOUIXHE4_OOTHQK
---True labels       : EAEVQTDOJG8RBRGONCEDHCTUIDBPUHMEM6OUXOCFOUKWA4VJEFRZROLHYNQDW_EKTLBWXEPOUIKZERYOOTHQI
---Accuracy: 56.5%
-- Repetition: 7
---Constructed labels: F5_XQ6D7JG89BRGONCFDZFTUWDTPCHM3M9OUX778OULWAIWJEER9MXLH1NR4W39KZLBWXEPOUIXHER_OOTHQK
---True labels       : EAEVQTDOJG8RBRGONCEDHCTUIDBPUHMEM6OUXOCFOUKWA4VJEFRZROLHYNQDW_EKTLBWXEPOUIKZERYOOTHQI
---Accuracy: 58.8%
-- Repetition: 8
---Constructed labels: F59VQ6D7JG8_BRGONCEDZETUWDTPCHMEM9OUX7CDOULWAKWJ3ER_MXLH1NRFW39KZLBWXEPOUIXTEXROOTHQI
---True labels       : EAEVQTDOJG8RBRGONCEDHCTUIDBPUHMEM6OUXOCFOUKWA4VJEFRZROLHYNQDW_EKTLBWXEPOUIKZERYOOTHQI
---Accuracy: 62.4%
-- Repetition: 9
---Constructed labels: F59WQ6D7JG8_BRGONCEDZETUWDTPCHMEM6OUX7CDOU4WAKWJEER_MOLH1NRFW39KZLBWXEPOUIXZEXROOTHQI
---True labels       : EAEVQTDOJG8RBRGONCEDHCTUIDBPUHMEM6OUXOCFOUKWA4VJEFRZROLHYNQDW_EKTLBWXEPOUIKZERYOOTHQI
---Accuracy: 65.9%
-- Repetition: 10
---Constructed labels: F59WQ6D7JG8_BRGONCED6ETUUDTPUHMES6OUXOCDOU3WAKWJEER_ROLL1NQFW39KTLBWXEPOUIXZEXROOTHQI
---True labels       : EAEVQTDOJG8RBRGONCEDHCTUIDBPUHMEM6OUXOCFOUKWA4VJEFRZROLHYNQDW_EKTLBWXEPOUIKZERYOOTHQI
---Accuracy: 69.4%
-- Repetition: 11
---Constructed labels: E59WQ6D7JG8RBRGONCED6ETUIDTPUHMES6OUXO7DOU3WAKWJEER4ROLLYNQ2W3EKTLBWXEPOUIXZEXROOTHQI
---True labels       : EAEVQTDOJG8RBRGONCEDHCTUIDBPUHMEM6OUXOCFOUKWA4VJEFRZROLHYNQDW_EKTLBWXEPOUIKZERYOOTHQI
---Accuracy: 74.1%
-- Repetition: 12
---Constructed labels: F5EWQZD7JH8RBRGONCED6ETUIDBPUHMES6OUWO7FOUKWAKWJEERZROLL1NQDW9EKTLBWXEPOUIXZEXROOTHQI
---True labels       : EAEVQTDOJG8RBRGONCEDHCTUIDBPUHMEM6OUXOCFOUKWA4VJEFRZROLHYNQDW_EKTLBWXEPOUIKZERYOOTHQI
---Accuracy: 76.5%
-- Repetition: 13
---Constructed labels: FAEWQZFOJH8RBRGONCED6ETUIDBPUHMES6OUWO7FOUKXA3WJEERZ4OLL1NQDW9EKTLBWXEPOUIWZER4OOTHQI
---True labels       : EAEVQTDOJG8RBRGONCEDHCTUIDBPUHMEM6OUXOCFOUKWA4VJEFRZROLHYNQDW_EKTLBWXEPOUIKZERYOOTHQI
---Accuracy: 76.5%
-- Repetition: 14
---Constructed labels: FAEVQZFOJH8RBRGONCED6CTUIDBPUHMEM6OUXO7FOUKXA3WJEERZ4OLH1NQDW9EKTLBWXKPOUIW6ER4OOTHQI
---True labels       : EAEVQTDOJG8RBRGONCEDHCTUIDBPUHMEM6OUXOCFOUKWA4VJEFRZROLHYNQDW_EKTLBWXEPOUIKZERYOOTHQI
---Accuracy: 80.0%
-- Repetition: 15
---Constructed labels: EAEVQTFOJG8RBRGONCED6CTUIDBPUHMEM6OUXO7FOUKXA3WJEERZ4OLH1NQDW_EKTLBWFKPOUIWZE44OOTHQI
---True labels       : EAEVQTDOJG8RBRGONCEDHCTUIDBPUHMEM6OUXOCFOUKWA4VJEFRZROLHYNQDW_EKTLBWXEPOUIKZERYOOTHQI
---Accuracy: 83.5%
==== End classifier: LinearSVC
==== Start classifier: SVC
-- Repetition: 1
---Constructed labels: F_E8RXDO8H8_BRGO6EE_HF6V_D687HME_67UXO_FRUKX__V8EFR6RRLHYN_F9_EIXLBXXFRRU7K69RYOOXHQI
---True labels       : EAEVQTDOJG8RBRGONCEDHCTUIDBPUHMEM6OUXOCFOUKWA4VJEFRZROLHYNQDW_EKTLBWXEPOUIKZERYOOTHQI
---Accuracy: 51.8%
-- Repetition: 2
---Constructed labels: EAEVRTDOJH8RBRGONCEDHC6U_DBPUHME56OUXOCFOUKWA_V8EFR6ROLHYN9DW_EKTLBXXFPOUIK6ERYOOTHQI
---True labels       : EAEVQTDOJG8RBRGONCEDHCTUIDBPUHMEM6OUXOCFOUKWA4VJEFRZROLHYNQDW_EKTLBWXEPOUIKZERYOOTHQI
---Accuracy: 85.9%
-- Repetition: 3
---Constructed labels: EAEVQTDOJG8RBRGONCEDHC6U7DBPUHMEM6OUXOCFOUKWA4VJEFRZROLHYNQDW_EKTLBXXEPOUIK6ERYOOTHQI
---True labels       : EAEVQTDOJG8RBRGONCEDHCTUIDBPUHMEM6OUXOCFOUKWA4VJEFRZROLHYNQDW_EKTLBWXEPOUIKZERYOOTHQI
---Accuracy: 95.3%
-- Repetition: 4
---Constructed labels: EAEVQTDOJG8RBRGONCEDHC6U7DBPUHMEM6OUXOCFOUKWA4VJEFRZROLHYNQDW_EKTLBXXEPOUIKZERYOOTHQI
---True labels       : EAEVQTDOJG8RBRGONCEDHCTUIDBPUHMEM6OUXOCFOUKWA4VJEFRZROLHYNQDW_EKTLBWXEPOUIKZERYOOTHQI
---Accuracy: 96.5%
-- Repetition: 5
---Constructed labels: EAEVQTDOJG8RBRGONCEDHCTUIDBPUHMEM6OUXOCFOUKWA4VJEFRZROLHYNQDW_EKTLBXXEPOUIKZERYOOTHQI
---True labels       : EAEVQTDOJG8RBRGONCEDHCTUIDBPUHMEM6OUXOCFOUKWA4VJEFRZROLHYNQDW_EKTLBWXEPOUIKZERYOOTHQI
---Accuracy: 98.8%
-- Repetition: 6
---Constructed labels: EAEVQTDOJG8RBRGONCEDHCTUIDBPUHMEM6OUXOCFOUKWA4VJEFRZROLHYNQDW_EKTLBWXEPOUIKZERYOOTHQI
---True labels       : EAEVQTDOJG8RBRGONCEDHCTUIDBPUHMEM6OUXOCFOUKWA4VJEFRZROLHYNQDW_EKTLBWXEPOUIKZERYOOTHQI
---Accuracy: 100.0%
-- Repetition: 7
---Constructed labels: EAEVQTDOJG8RBRGONCEDHCTUIDBPUHMEM6OUXOCFOUKWA4VJEFRZROLHYNQDW_EKTLBWXEPOUIKZERYOOTHQI
---True labels       : EAEVQTDOJG8RBRGONCEDHCTUIDBPUHMEM6OUXOCFOUKWA4VJEFRZROLHYNQDW_EKTLBWXEPOUIKZERYOOTHQI
---Accuracy: 100.0%
-- Repetition: 8
---Constructed labels: EAEVQTDOJG8RBRGONCEDHCTUIDBPUHMEM6OUXOCFOUKWA4VJEFRZROLHYNQDW_EKTLBWXEPOUIKZERYOOTHQI
---True labels       : EAEVQTDOJG8RBRGONCEDHCTUIDBPUHMEM6OUXOCFOUKWA4VJEFRZROLHYNQDW_EKTLBWXEPOUIKZERYOOTHQI
---Accuracy: 100.0%
-- Repetition: 9
---Constructed labels: EAEVQTDOJG8RBRGONCEDHCTUIDBPUHMEM6OUXOCFOUKWA4VJEFRZROLHYNQDW_EKTLBWXEPOUIKZERYOOTHQI
---True labels       : EAEVQTDOJG8RBRGONCEDHCTUIDBPUHMEM6OUXOCFOUKWA4VJEFRZROLHYNQDW_EKTLBWXEPOUIKZERYOOTHQI
---Accuracy: 100.0%
-- Repetition: 10
---Constructed labels: EAEVQTDOJG8RBRGONCEDHCTUIDBPUHMEM6OUXOCFOUKWA4VJEFRZROLHYNQDW_EKTLBWXEPOUIKZERYOOTHQI
---True labels       : EAEVQTDOJG8RBRGONCEDHCTUIDBPUHMEM6OUXOCFOUKWA4VJEFRZROLHYNQDW_EKTLBWXEPOUIKZERYOOTHQI
---Accuracy: 100.0%
-- Repetition: 11
---Constructed labels: EAEVQTDOJG8RBRGONCEDHCTUIDBPUHMEM6OUXOCFOUKWA4VJEFRZROLHYNQDW_EKTLBWXEPOUIKZERYOOTHQI
---True labels       : EAEVQTDOJG8RBRGONCEDHCTUIDBPUHMEM6OUXOCFOUKWA4VJEFRZROLHYNQDW_EKTLBWXEPOUIKZERYOOTHQI
---Accuracy: 100.0%
-- Repetition: 12
---Constructed labels: EAEVQTDOJG8RBRGONCEDHCTUIDBPUHMEM6OUXOCFOUKWA4VJEFRZROLHYNQDW_EKTLBWXEPOUIKZERYOOTHQI
---True labels       : EAEVQTDOJG8RBRGONCEDHCTUIDBPUHMEM6OUXOCFOUKWA4VJEFRZROLHYNQDW_EKTLBWXEPOUIKZERYOOTHQI
---Accuracy: 100.0%
-- Repetition: 13
---Constructed labels: EAEVQTDOJG8RBRGONCEDHCTUIDBPUHMEM6OUXOCFOUKWA4VJEFRZROLHYNQDW_EKTLBWXEPOUIKZERYOOTHQI
---True labels       : EAEVQTDOJG8RBRGONCEDHCTUIDBPUHMEM6OUXOCFOUKWA4VJEFRZROLHYNQDW_EKTLBWXEPOUIKZERYOOTHQI
---Accuracy: 100.0%
-- Repetition: 14
---Constructed labels: EAEVQTDOJG8RBRGONCEDHCTUIDBPUHMEM6OUXOCFOUKWA4VJEFRZROLHYNQDW_EKTLBWXEPOUIKZERYOOTHQI
---True labels       : EAEVQTDOJG8RBRGONCEDHCTUIDBPUHMEM6OUXOCFOUKWA4VJEFRZROLHYNQDW_EKTLBWXEPOUIKZERYOOTHQI
---Accuracy: 100.0%
-- Repetition: 15
---Constructed labels: EAEVQTDOJG8RBRGONCEDHCTUIDBPUHMEM6OUXOCFOUKWA4VJEFRZROLHYNQDW_EKTLBWXEPOUIKZERYOOTHQI
---True labels       : EAEVQTDOJG8RBRGONCEDHCTUIDBPUHMEM6OUXOCFOUKWA4VJEFRZROLHYNQDW_EKTLBWXEPOUIKZERYOOTHQI
---Accuracy: 100.0%
==== End classifier: SVC
==== Start classifier: LDA_wyrm
-- Repetition: 1
---Constructed labels: DVCVJPA1PBRCFXGONAWOHBTRUDH27AGAQ_1UVODDMVKUHKP1FFRH_NLB8TECEFEUTGEQTEHOCDLYAXYO1THQE
---True labels       : EAEVQTDOJG8RBRGONCEDHCTUIDBPUHMEM6OUXOCFOUKWA4VJEFRZROLHYNQDW_EKTLBWXEPOUIKZERYOOTHQI
---Accuracy: 25.9%
-- Repetition: 2
---Constructed labels: DSAVQNBOJDURBRGOBCEDK6TX7DCPCPMY57O1TOCF7UKWHKP1FFRZROLHWTQCWFEFTHBWTEPRCOFYELSOUNHQE
---True labels       : EAEVQTDOJG8RBRGONCEDHCTUIDBPUHMEM6OUXOCFOUKWA4VJEFRZROLHYNQDW_EKTLBWXEPOUIKZERYOOTHQI
---Accuracy: 49.4%
-- Repetition: 3
---Constructed labels: BSAVQZDOJJ8RBRGONCEPHBTU7DBPCBMEM61UTOCFOUKWGKV2DFRZROLHY6QCE_EETLBXXEQRUIFYEL1OOTHQE
---True labels       : EAEVQTDOJG8RBRGONCEDHCTUIDBPUHMEM6OUXOCFOUKWA4VJEFRZROLHYNQDW_EKTLBWXEPOUIKZERYOOTHQI
---Accuracy: 67.1%
-- Repetition: 4
---Constructed labels: BAEVQZBIDJ8RBRGONCEDKBTU7DBPUNMEM5OUXOCFOUKWGHV2EFR6RMLHYTQCW_EKTLBXXEPOCKFYEL1OOTHQB
---True labels       : EAEVQTDOJG8RBRGONCEDHCTUIDBPUHMEM6OUXOCFOUKWA4VJEFRZROLHYNQDW_EKTLBWXEPOUIKZERYOOTHQI
---Accuracy: 69.4%
-- Repetition: 5
---Constructed labels: DAEVQTD7JG8RBRGONCEDHBTUIDBPUB5AM6OUXOCFOUKWAZVJEFRZRMLLYNQDW_EKTLBXXEPOCIFZEL1OOTHQE
---True labels       : EAEVQTDOJG8RBRGONCEDHCTUIDBPUHMEM6OUXOCFOUKWA4VJEFRZROLHYNQDW_EKTLBWXEPOUIKZERYOOTHQI
---Accuracy: 82.4%
-- Repetition: 6
---Constructed labels: BAEVQTDOJG8RBRGONCEDHBTUIDBPUN5EM6OUXOCFOUKWAZVJEFRZROLHYNQDW_EKTLBXXEPOCIWZELYOOTHQB
---True labels       : EAEVQTDOJG8RBRGONCEDHCTUIDBPUHMEM6OUXOCFOUKWA4VJEFRZROLHYNQDW_EKTLBWXEPOUIKZERYOOTHQI
---Accuracy: 88.2%
-- Repetition: 7
---Constructed labels: DAEVQTDOJG8RBRGONCEDHBTUIDBPUHMEM6OUXOCFOUKWAZVJEFRZROLHYNQDW_EKTLBWXEPOUIKZEL1OOTHQE
---True labels       : EAEVQTDOJG8RBRGONCEDHCTUIDBPUHMEM6OUXOCFOUKWA4VJEFRZROLHYNQDW_EKTLBWXEPOUIKZERYOOTHQI
---Accuracy: 92.9%
-- Repetition: 8
---Constructed labels: DAEVQTDOJG8RBRGONCEDHBTUIDBPUHMEM6OUTOCFOUKWG4VJEFRZROLHYNQDW_EKTLBWXEPOUIKZEXYOOTHQI
---True labels       : EAEVQTDOJG8RBRGONCEDHCTUIDBPUHMEM6OUXOCFOUKWA4VJEFRZROLHYNQDW_EKTLBWXEPOUIKZERYOOTHQI
---Accuracy: 94.1%
-- Repetition: 9
---Constructed labels: DAEVQTDOJG8RBRGONCEDHBTUIDBPUHMEM6OUTOCFOUKWA4VJEFFZROLHYNQDW_EKTLBWXEPOUIKZEXYOOTHQI
---True labels       : EAEVQTDOJG8RBRGONCEDHCTUIDBPUHMEM6OUXOCFOUKWA4VJEFRZROLHYNQDW_EKTLBWXEPOUIKZERYOOTHQI
---Accuracy: 94.1%
-- Repetition: 10
---Constructed labels: EAEVQTDOJG8RBRGONCEDHBTUIDBPUHMEM6OUXOCFOUKWA4VJEFFZROLHYNQDW_EKTLBWXEPOUIKZEXYOOTHQI
---True labels       : EAEVQTDOJG8RBRGONCEDHCTUIDBPUHMEM6OUXOCFOUKWA4VJEFRZROLHYNQDW_EKTLBWXEPOUIKZERYOOTHQI
---Accuracy: 96.5%
-- Repetition: 11
---Constructed labels: EAEVQTDOJG8RBRGONCEDHCTUIDBPUHMEM6OUXOCFOUKWA4VJEFFZROLHYNQDW_EKTLBWXEPOUIKZERYOOTHQI
---True labels       : EAEVQTDOJG8RBRGONCEDHCTUIDBPUHMEM6OUXOCFOUKWA4VJEFRZROLHYNQDW_EKTLBWXEPOUIKZERYOOTHQI
---Accuracy: 98.8%
-- Repetition: 12
---Constructed labels: EAEVQTDOJG8RBRGONCEDHCTUIDBPUHMEM6OUXOCFOUKWA4VJEFRZROLHYNQDW_EKTLBWXEPOUIKZERYOOTHQC
---True labels       : EAEVQTDOJG8RBRGONCEDHCTUIDBPUHMEM6OUXOCFOUKWA4VJEFRZROLHYNQDW_EKTLBWXEPOUIKZERYOOTHQI
---Accuracy: 98.8%
-- Repetition: 13
---Constructed labels: EAEVQTDOJG8RBRGONCEDHCTUIDBPUHMEM6OUXOCFOUKWA4VJEFRZ4OLHYNQDW_EKTLBWXEPOUIKZERYOOTHQI
---True labels       : EAEVQTDOJG8RBRGONCEDHCTUIDBPUHMEM6OUXOCFOUKWA4VJEFRZROLHYNQDW_EKTLBWXEPOUIKZERYOOTHQI
---Accuracy: 98.8%
-- Repetition: 14
---Constructed labels: EAEVQTDOJG8RBRGONCEDHCTUIDBPUHMEM6OUXOCFOUKWA4VJEFRZ4OLHYNQDW_EKTLBWXEPOUIKZERYOOTHQI
---True labels       : EAEVQTDOJG8RBRGONCEDHCTUIDBPUHMEM6OUXOCFOUKWA4VJEFRZROLHYNQDW_EKTLBWXEPOUIKZERYOOTHQI
---Accuracy: 98.8%
-- Repetition: 15
---Constructed labels: EAEVQTDOJG8RBRGONCEDHCTUIDBPUHMEM6OUXOCFOUKWA4VJEFRZ4OLHYNQDW_EKTLBWXEPOUIKZERYOOTHQI
---True labels       : EAEVQTDOJG8RBRGONCEDHCTUIDBPUHMEM6OUXOCFOUKWA4VJEFRZROLHYNQDW_EKTLBWXEPOUIKZERYOOTHQI
---Accuracy: 98.8%
==== Start Subject: 1
==== Start classifier: GradientBoostingClassifier_0.1
-- Repetition: 1
---Constructed labels: ___9_____________5_6___F___8______________FR___R_____________________________________
---True labels       : VGREAAH8TVRHBYN_UGCOLO4EUERDOOHCIFOMDNU6LQCPKEIREKOYRQIDJXPBKOJDWZEUEWWFOEBHXTQTTZUMO
---Accuracy: 2.4%
-- Repetition: 2
---Constructed labels: ___9_____________5_6___F___8__6___________FR___R________L_8________X9________________
---True labels       : VGREAAH8TVRHBYN_UGCOLO4EUERDOOHCIFOMDNU6LQCPKEIREKOYRQIDJXPBKOJDWZEUEWWFOEBHXTQTTZUMO
---Accuracy: 2.4%
-- Repetition: 3
---Constructed labels: ___9_____________5_6___F___8__6___________FR__7R_L______L_8____8___X9X__9____________
---True labels       : VGREAAH8TVRHBYN_UGCOLO4EUERDOOHCIFOMDNU6LQCPKEIREKOYRQIDJXPBKOJDWZEUEWWFOEBHXTQTTZUMO
---Accuracy: 2.4%
-- Repetition: 4
---Constructed labels: ___9_____________5_6___F___8__6___________FR__7R_L______L_8__R_8___X9X_F99__5___X____
---True labels       : VGREAAH8TVRHBYN_UGCOLO4EUERDOOHCIFOMDNU6LQCPKEIREKOYRQIDJXPBKOJDWZEUEWWFOEBHXTQTTZUMO
---Accuracy: 3.5%
-- Repetition: 5
---Constructed labels: ___9_F6____6_____5_6___F___8__6_______7_L_FR__7R_L______L_8__O88___X9XXF99__5___X____
---True labels       : VGREAAH8TVRHBYN_UGCOLO4EUERDOOHCIFOMDNU6LQCPKEIREKOYRQIDJXPBKOJDWZEUEWWFOEBHXTQTTZUMO
---Accuracy: 5.9%
-- Repetition: 6
---Constructed labels: ___9_F6____6_____5F6___FX__8__6_7F____7_L_FR__7RFL______L_8__O88___X9XXF99__5___X__5_
---True labels       : VGREAAH8TVRHBYN_UGCOLO4EUERDOOHCIFOMDNU6LQCPKEIREKOYRQIDJXPBKOJDWZEUEWWFOEBHXTQTTZUMO
---Accuracy: 7.1%
-- Repetition: 7
---Constructed labels: ___9_F6_6__6F____5F7_7_FX__8__6_7F____7_L_FR_97RFL______L_8__O88___X9XXFQ9__5X__X__5_
---True labels       : VGREAAH8TVRHBYN_UGCOLO4EUERDOOHCIFOMDNU6LQCPKEIREKOYRQIDJXPBKOJDWZEUEWWFOEBHXTQTTZUMO
---Accuracy: 7.1%
-- Repetition: 8
---Constructed labels: ___9_F6_6__HF____5F7_O_FX__8_RH_7F____7_L_FRL97RFL______L_8__O88___X9XXFQ9_L5X__X__5_
---True labels       : VGREAAH8TVRHBYN_UGCOLO4EUERDOOHCIFOMDNU6LQCPKEIREKOYRQIDJXPBKOJDWZEUEWWFOEBHXTQTTZUMO
---Accuracy: 10.6%
-- Repetition: 9
---Constructed labels: ___9_F6_6__HF4___5F7_O_FXF_8_RH_7F____7_L_FRL97RFL_5____L_86_O88___X9XXFQ9_L5X__X__5_
---True labels       : VGREAAH8TVRHBYN_UGCOLO4EUERDOOHCIFOMDNU6LQCPKEIREKOYRQIDJXPBKOJDWZEUEWWFOEBHXTQTTZUMO
---Accuracy: 10.6%
-- Repetition: 10
---Constructed labels: ___9_F6_6__HF4___GF7_O_CXE_8_RH_7F____7_L_FRLE7RFL_5____L_P6_O88___X9XXFQ9_L5X__X__5_
---True labels       : VGREAAH8TVRHBYN_UGCOLO4EUERDOOHCIFOMDNU6LQCPKEIREKOYRQIDJXPBKOJDWZEUEWWFOEBHXTQTTZUMO
---Accuracy: 15.3%
-- Repetition: 11
---Constructed labels: __L9_F6_6__HF4___GF7_O_CXE_8_RH_7F____7_L_FRLE7RFL75____L_P69O889__XEXXFQ9_L5X__X4_5_
---True labels       : VGREAAH8TVRHBYN_UGCOLO4EUERDOOHCIFOMDNU6LQCPKEIREKOYRQIDJXPBKOJDWZEUEWWFOEBHXTQTTZUMO
---Accuracy: 16.5%
-- Repetition: 12
---Constructed labels: __L9_F6_6__HF4___GF7_O_CXE_8_RH_7F____7_L_FRLE7RFL75____L_P69O889__XEXXFQE_L5X__T4X5_
---True labels       : VGREAAH8TVRHBYN_UGCOLO4EUERDOOHCIFOMDNU6LQCPKEIREKOYRQIDJXPBKOJDWZEUEWWFOEBHXTQTTZUMO
---Accuracy: 18.8%
-- Repetition: 13
---Constructed labels: __L9_F6_6__HF4R__GF7_O_CXE_8_RH_7F____7_L_FRLE7RFL75____L_P69O889__XEXXFQE_L5X__T4X5_
---True labels       : VGREAAH8TVRHBYN_UGCOLO4EUERDOOHCIFOMDNU6LQCPKEIREKOYRQIDJXPBKOJDWZEUEWWFOEBHXTQTTZUMO
---Accuracy: 18.8%
-- Repetition: 14
---Constructed labels: __L9_A6_6__HF4R__GC7_O_CXE_8_RH_7FR___7_L_FRLE7RFL75____L_P69O889_9XEXXFQE_L_X__T4X5_
---True labels       : VGREAAH8TVRHBYN_UGCOLO4EUERDOOHCIFOMDNU6LQCPKEIREKOYRQIDJXPBKOJDWZEUEWWFOEBHXTQTTZUMO
---Accuracy: 21.2%
-- Repetition: 15
---Constructed labels: __R9_B6_6__HF4R__GC7_O_CXE_8_RH_7FR___7_L_FRLECRFL75_X__L_P69O889_9XEXXFQE_L_X__T4X57
---True labels       : VGREAAH8TVRHBYN_UGCOLO4EUERDOOHCIFOMDNU6LQCPKEIREKOYRQIDJXPBKOJDWZEUEWWFOEBHXTQTTZUMO
---Accuracy: 21.2%
==== End classifier: GradientBoostingClassifier_0.1
==== Start classifier: AdaBoostClassifier
-- Repetition: 1
---Constructed labels: X__9_7_____R_____5_6______8D_______5___R___R____R___6_R_7X86___8R7______O_5_XR_R_____
---True labels       : VGREAAH8TVRHBYN_UGCOLO4EUERDOOHCIFOMDNU6LQCPKEIREKOYRQIDJXPBKOJDWZEUEWWFOEBHXTQTTZUMO
---Accuracy: 5.9%
-- Repetition: 2
---Constructed labels: X__9_7__6__R_____5_697__X_8D__H___F5___R___R____R___69R_8XVH___8R7______O_G_XRRR____R
---True labels       : VGREAAH8TVRHBYN_UGCOLO4EUERDOOHCIFOMDNU6LQCPKEIREKOYRQIDJXPBKOJDWZEUEWWFOEBHXTQTTZUMO
---Accuracy: 7.1%
-- Repetition: 3
---Constructed labels: X__967__6__R_____5_697__X_8D__H___F5_______R__I_R___69R_8XVH6R_8R7___X_RO_G_XRRR___RR
---True labels       : VGREAAH8TVRHBYN_UGCOLO4EUERDOOHCIFOMDNU6LQCPKEIREKOYRQIDJXPBKOJDWZEUEWWFOEBHXTQTTZUMO
---Accuracy: 8.2%
-- Repetition: 4
---Constructed labels: X_LE6C__6__R_____5_697__XF9D__H_5_F5_____97R_5I5R___69R_8XVB6R_8R7___X_ROLG_XRRR___RR
---True labels       : VGREAAH8TVRHBYN_UGCOLO4EUERDOOHCIFOMDNU6LQCPKEIREKOYRQIDJXPBKOJDWZEUEWWFOEBHXTQTTZUMO
---Accuracy: 10.6%
-- Repetition: 5
---Constructed labels: U_LE6A6_6__N_5___59697__XF9D__H_5_F5F_7__W7R_5I5R9__69R_8XVB6O8DR7___VSROLG_XRRR___RR
---True labels       : VGREAAH8TVRHBYN_UGCOLO4EUERDOOHCIFOMDNU6LQCPKEIREKOYRQIDJXPBKOJDWZEUEWWFOEBHXTQTTZUMO
---Accuracy: 14.1%
-- Repetition: 6
---Constructed labels: U_LE6A686__N_5___59697__XF_D_XH_5FC5F_7__W77_5I5R9_869R_JXPB6O8DR7___VSROLG_XRRX_4_MR
---True labels       : VGREAAH8TVRHBYN_UGCOLO4EUERDOOHCIFOMDNU6LQCPKEIREKOYRQIDJXPBKOJDWZEUEWWFOEBHXTQTTZUMO
---Accuracy: 20.0%
-- Repetition: 7
---Constructed labels: U_LE6A686__NF58__597KI__XF_D_XH_5FC5FRC__W77_5I5RK_869O_JXPB6O8DR9___VSROLG_XRRX_4_MO
---True labels       : VGREAAH8TVRHBYN_UGCOLO4EUERDOOHCIFOMDNU6LQCPKEIREKOYRQIDJXPBKOJDWZEUEWWFOEBHXTQTTZUMO
---Accuracy: 22.4%
-- Repetition: 8
---Constructed labels: UFLE6A6868_NF58__597LI__XF_D7XH_5FOGFR7__W77LYI5RK_869ODJXPB6O8DX9___VSROLG_XRRX_4_MO
---True labels       : VGREAAH8TVRHBYN_UGCOLO4EUERDOOHCIFOMDNU6LQCPKEIREKOYRQIDJXPBKOJDWZEUEWWFOEBHXTQTTZUMO
---Accuracy: 25.9%
-- Repetition: 9
---Constructed labels: XFLEBA6868_NFY8__597LI__XF_D7XH_5FOGFR7__W77LYOMQK_869ODJXPB6OJDX9___VSROLG_XTRT_4_MO
---True labels       : VGREAAH8TVRHBYN_UGCOLO4EUERDOOHCIFOMDNU6LQCPKEIREKOYRQIDJXPBKOJDWZEUEWWFOEBHXTQTTZUMO
---Accuracy: 29.4%
-- Repetition: 10
---Constructed labels: XLLEBM6868FNFY8__597LI_7XE_D7XH_5FOGFR7_LW77KYURQK7869ODJXPB6OJDX9_U9VSROLG_XTRT_4_MO
---True labels       : VGREAAH8TVRHBYN_UGCOLO4EUERDOOHCIFOMDNU6LQCPKEIREKOYRQIDJXPBKOJDWZEUEWWFOEBHXTQTTZUMO
---Accuracy: 34.1%
-- Repetition: 11
---Constructed labels: XLLEBM6868FNFY8__597LI_7XERD7XH_5FOGFR7_LW77KYUR3K7J69ODJXPB6OJDX9_U9VSROLG_XTRT_4_MO
---True labels       : VGREAAH8TVRHBYN_UGCOLO4EUERDOOHCIFOMDNU6LQCPKEIREKOYRQIDJXPBKOJDWZEUEWWFOEBHXTQTTZUMO
---Accuracy: 35.3%
-- Repetition: 12
---Constructed labels: XLLEBM6888FNFY8__597LI_7UERD7XH_5FOGFR7_LW78KAUR3K7J69ODJXPB6OJDT98U9VSROLG_XTQT_4UMO
---True labels       : VGREAAH8TVRHBYN_UGCOLO4EUERDOOHCIFOMDNU6LQCPKEIREKOYRQIDJXPBKOJDWZEUEWWFOEBHXTQTTZUMO
---Accuracy: 38.8%
-- Repetition: 13
---Constructed labels: XLLEBM6888FNFY8__597LI_CUEPD7XH_8FOGFR7_LW78KAUR3K7JH9ODJXPB6OJDT98UEVSROLG_XTQTX4UMO
---True labels       : VGREAAH8TVRHBYN_UGCOLO4EUERDOOHCIFOMDNU6LQCPKEIREKOYRQIDJXPBKOJDWZEUEWWFOEBHXTQTTZUMO
---Accuracy: 38.8%
-- Repetition: 14
---Constructed labels: XLLEBM6888FNFY8__597LO_CUEPD7XH_8FOGFR7_L978KAUR3K7JH9ODJXPB6OJDT98UEVSROLG_XTQTX4UMO
---True labels       : VGREAAH8TVRHBYN_UGCOLO4EUERDOOHCIFOMDNU6LQCPKEIREKOYRQIDJXPBKOJDWZEUEWWFOEBHXTQTTZUMO
---Accuracy: 40.0%
-- Repetition: 15
---Constructed labels: XLLEBM6888FNFY8__597LO_CUEPD7XH7JFOGFR77L978KAUR3K7JH9O8JXPB6OJDT98UEVSROLG_XTQTX4UMO
---True labels       : VGREAAH8TVRHBYN_UGCOLO4EUERDOOHCIFOMDNU6LQCPKEIREKOYRQIDJXPBKOJDWZEUEWWFOEBHXTQTTZUMO
---Accuracy: 38.8%
==== End classifier: AdaBoostClassifier
==== Start classifier: KNeighborsClassifier
-- Repetition: 1
---Constructed labels: 8_79FF___R__R________74_XXR6R___4_R_4__96QF_K_5_E9R5QLL6____9_L_76_OAX_F_E64___X_6_A_
---True labels       : VGREAAH8TVRHBYN_UGCOLO4EUERDOOHCIFOMDNU6LQCPKEIREKOYRQIDJXPBKOJDWZEUEWWFOEBHXTQTTZUMO
---Accuracy: 9.4%
-- Repetition: 2
---Constructed labels: 8_794A8_WP_9R___7SA__O4EZWRZRX641_O_4__H6QW_K977WK1YQKI8I__H38L_76EUEX9F_E64__LTT6_AF
---True labels       : VGREAAH8TVRHBYN_UGCOLO4EUERDOOHCIFOMDNU6LQCPKEIREKOYRQIDJXPBKOJDWZEUEWWFOEBHXTQTTZUMO
---Accuracy: 22.4%
-- Repetition: 3
---Constructed labels: 8_794A8_WV_9R___7SB__O4EUWRZRU64I8UL4RJ66QW_Q_8_W91YRQO8J__H3PL7UZEUEX9F6E64_XLTT6_AO
---True labels       : VGREAAH8TVRHBYN_UGCOLO4EUERDOOHCIFOMDNU6LQCPKEIREKOYRQIDJXPBKOJDWZEUEWWFOEBHXTQTTZUMO
---Accuracy: 28.2%
-- Repetition: 4
---Constructed labels: 8__94A8_WV_9R49_7SB__O4EUWR3RV64I8OHYRJ6_QUFKFJ_WK4YRQO8J_UB3PL9UZEUEX9F6E64_ULTT67AO
---True labels       : VGREAAH8TVRHBYN_UGCOLO4EUERDOOHCIFOMDNU6LQCPKEIREKOYRQIDJXPBKOJDWZEUEWWFOEBHXTQTTZUMO
---Accuracy: 32.9%
-- Repetition: 5
---Constructed labels: 8_49FA8_6V_9M49_7SB__O_EUER3RUN1I_OH4RJ6_QUDKEI4WKOYRQO8J_OB3OJEWZEUEX9F73ZX_XLTT67AO
---True labels       : VGREAAH8TVRHBYN_UGCOLO4EUERDOOHCIFOMDNU6LQCPKEIREKOYRQIDJXPBKOJDWZEUEWWFOEBHXTQTTZUMO
---Accuracy: 38.8%
-- Repetition: 6
---Constructed labels: 8_4EAA6_HV_9B49_USBR_O_EUER3RUN1IFOH4NJ6_Q18KEI4EKOYRQO8J_OB3OJEWZEUEX9F7EZX_XKTTB7AO
---True labels       : VGREAAH8TVRHBYN_UGCOLO4EUERDOOHCIFOMDNU6LQCPKEIREKOYRQIDJXPBKOJDWZEUEWWFOEBHXTQTTZUMO
---Accuracy: 48.2%
-- Repetition: 7
---Constructed labels: 8A4EAAH8HVR9C46_USBR_O_EUERZRUN1IFOH4NI6_Q1PKEIREKOYRQO8J_MB3OJEWZEUEW9F7EZX_TKT6B7AO
---True labels       : VGREAAH8TVRHBYN_UGCOLO4EUERDOOHCIFOMDNU6LQCPKEIREKOYRQIDJXPBKOJDWZEUEWWFOEBHXTQTTZUMO
---Accuracy: 54.1%
-- Repetition: 8
---Constructed labels: 8A4EAAH8HV_9C4Z_USBR_O_EUER2RUN1I4ON4ZU6_Q1PKEIREKOYRQU8J_MB3OJDWZEUAW_F7EZT_TQT6B7MO
---True labels       : VGREAAH8TVRHBYN_UGCOLO4EUERDOOHCIFOMDNU6LQCPKEIREKOYRQIDJXPBKOJDWZEUEWWFOEBHXTQTTZUMO
---Accuracy: 54.1%
-- Repetition: 9
---Constructed labels: VALECAH8HV_KC4Z_USCR_O_EUERDRUN1IFONDNU6_Q1PKEIREKOYRQU8JXMB3OJDWZEUAWEFOEZH_TQT6BUMO
---True labels       : VGREAAH8TVRHBYN_UGCOLO4EUERDOOHCIFOMDNU6LQCPKEIREKOYRQIDJXPBKOJDWZEUEWWFOEBHXTQTTZUMO
---Accuracy: 64.7%
-- Repetition: 10
---Constructed labels: VALECAH_NV_KC4Z_UGCO_O_3UERDRUN1IFONDNU6_Q1PKEIREKOYRQUDJXPBQOJDWZEUAW9FOEBH_TQT6ZUMO
---True labels       : VGREAAH8TVRHBYN_UGCOLO4EUERDOOHCIFOMDNU6LQCPKEIREKOYRQIDJXPBKOJDWZEUEWWFOEBHXTQTTZUMO
---Accuracy: 69.4%
-- Repetition: 11
---Constructed labels: VGLECAH8NV_KC4Z_UGCO_O_3UERDRUN1IFONDNU6_Q1PKEIREKOYRQIDJXPBQOJDWZEUEW9FOEBH_TQT6ZUMO
---True labels       : VGREAAH8TVRHBYN_UGCOLO4EUERDOOHCIFOMDNU6LQCPKEIREKOYRQIDJXPBKOJDWZEUEWWFOEBHXTQTTZUMO
---Accuracy: 74.1%
-- Repetition: 12
---Constructed labels: VKLECAH8NV_KA4Z_UGCO_O_3UERDRUH1IFONANU6LQ1PKEIREKOYRQIDJXPBQOJDWZEUEW9FOEBH_TQT6ZUMO
---True labels       : VGREAAH8TVRHBYN_UGCOLO4EUERDOOHCIFOMDNU6LQCPKEIREKOYRQIDJXPBKOJDWZEUEWWFOEBHXTQTTZUMO
---Accuracy: 74.1%
-- Repetition: 13
---Constructed labels: VGLECAH8TV_KA4N_UGCO_O_3UERDRUH1IFONFNU6LQ1PKEIREKOYRQIDJXPBQOJDWZEUEW9FOEBH_TQT6ZUMO
---True labels       : VGREAAH8TVRHBYN_UGCOLO4EUERDOOHCIFOMDNU6LQCPKEIREKOYRQIDJXPBKOJDWZEUEWWFOEBHXTQTTZUMO
---Accuracy: 77.6%
-- Repetition: 14
---Constructed labels: WGLECAH8TV_KA4N_UGCO_O_3UERDOUH1IFONFNU6LQ1PKE7REKOYRQIDJXPBQOJDWZEUEW9FOEBH_TQT6ZUMO
---True labels       : VGREAAH8TVRHBYN_UGCOLO4EUERDOOHCIFOMDNU6LQCPKEIREKOYRQIDJXPBKOJDWZEUEWWFOEBHXTQTTZUMO
---Accuracy: 76.5%
-- Repetition: 15
---Constructed labels: VGLEAAH8TVRKA4N_UGCO_O_3UERDOUH1IFONFNU6LQ1PKEIREKOYRQIDJXPB3OJDWZEUEW9FOEBH_TQT6ZUMO
---True labels       : VGREAAH8TVRHBYN_UGCOLO4EUERDOOHCIFOMDNU6LQCPKEIREKOYRQIDJXPBKOJDWZEUEWWFOEBHXTQTTZUMO
---Accuracy: 81.2%
==== End classifier: KNeighborsClassifier
==== Start classifier: DecisionTreeClassifier
-- Repetition: 1
---Constructed labels: P4RQDAN8T8RH6_6_XG7P_74EUE_D11_C7FOMFN76_QCPKF_RE91YRR7DJXPFK1JVWZKUXW9FREB6RTQZTZUP7
---True labels       : VGREAAH8TVRHBYN_UGCOLO4EUERDOOHCIFOMDNU6LQCPKEIREKOYRQIDJXPBKOJDWZEUEWWFOEBHXTQTTZUMO
---Accuracy: 52.9%
-- Repetition: 2
---Constructed labels: VYREDAH8TVRHB56_UG7P_O4EUERDOOHCIFOMFNU6LQCPKEIRWK1YRQIDJX2BKOJD3ZEUEW9_OED6XTQTTZUM7
---True labels       : VGREAAH8TVRHBYN_UGCOLO4EUERDOOHCIFOMDNU6LQCPKEIREKOYRQIDJXPBKOJDWZEUEWWFOEBHXTQTTZUMO
---Accuracy: 80.0%
-- Repetition: 3
---Constructed labels: VGREAAH8TVRHBY6_UG7PLO4EUERDOOHCIFOMFNU6LQCPKEIRWKOYRQIDJXPBKOJD3ZEUEW3_OEBHXTQTTZUMO
---True labels       : VGREAAH8TVRHBYN_UGCOLO4EUERDOOHCIFOMDNU6LQCPKEIREKOYRQIDJXPBKOJDWZEUEWWFOEBHXTQTTZUMO
---Accuracy: 90.6%
-- Repetition: 4
---Constructed labels: VGREAAH8TVRHBYZ_UGCPLO4EUERDOOHCIFOMDNU6LQCPKEIREKOYRQIDJXPBKOJDWZEUEWWFOEBHXTQTTZUMO
---True labels       : VGREAAH8TVRHBYN_UGCOLO4EUERDOOHCIFOMDNU6LQCPKEIREKOYRQIDJXPBKOJDWZEUEWWFOEBHXTQTTZUMO
---Accuracy: 97.6%
-- Repetition: 5
---Constructed labels: VGREAAH8TVRHBYN_UGCOLO4EUERDOOHCIFOMDNU6LQCPKEIREKOYRQIDJXPBKOJDWZEUEWWFOEBZXTQTTZUMO
---True labels       : VGREAAH8TVRHBYN_UGCOLO4EUERDOOHCIFOMDNU6LQCPKEIREKOYRQIDJXPBKOJDWZEUEWWFOEBHXTQTTZUMO
---Accuracy: 98.8%
-- Repetition: 6
---Constructed labels: VGREAAH8TVRHBYN_UGCOLO4EUERDOOHCIFOMDNU6LQCPKEIREKOYRQIDJXPBKOJDWZEUEWWFOEBHXTQTTZUMO
---True labels       : VGREAAH8TVRHBYN_UGCOLO4EUERDOOHCIFOMDNU6LQCPKEIREKOYRQIDJXPBKOJDWZEUEWWFOEBHXTQTTZUMO
---Accuracy: 100.0%
-- Repetition: 7
---Constructed labels: VGREAAH8TVRHBYN_UGCOLO4EUERDOOHCIFOMDNU6LQCPKEIREKOYRQIDJXPBKOJDWZEUEWWFOEBHXTQTTZUMO
---True labels       : VGREAAH8TVRHBYN_UGCOLO4EUERDOOHCIFOMDNU6LQCPKEIREKOYRQIDJXPBKOJDWZEUEWWFOEBHXTQTTZUMO
---Accuracy: 100.0%
-- Repetition: 8
---Constructed labels: VGREAAH8TVRHBYN_UGCOLO4EUERDOOHCIFOMDNU6LQCPKEIREKOYRQIDJXPBKOJDWZEUEWWFOEBHXTQTTZUMO
---True labels       : VGREAAH8TVRHBYN_UGCOLO4EUERDOOHCIFOMDNU6LQCPKEIREKOYRQIDJXPBKOJDWZEUEWWFOEBHXTQTTZUMO
---Accuracy: 100.0%
-- Repetition: 9
---Constructed labels: VGREAAH8TVRHBYN_UGCOLO4EUERDOOHCIFOMDNU6LQCPKEIREKOYRQIDJXPBKOJDWZEUEWWFOEBHXTQTTZUMO
---True labels       : VGREAAH8TVRHBYN_UGCOLO4EUERDOOHCIFOMDNU6LQCPKEIREKOYRQIDJXPBKOJDWZEUEWWFOEBHXTQTTZUMO
---Accuracy: 100.0%
-- Repetition: 10
---Constructed labels: VGREAAH8TVRHBYN_UGCOLO4EUERDOOHCIFOMDNU6LQCPKEIREKOYRQIDJXPBKOJDWZEUEWWFOEBHXTQTTZUMO
---True labels       : VGREAAH8TVRHBYN_UGCOLO4EUERDOOHCIFOMDNU6LQCPKEIREKOYRQIDJXPBKOJDWZEUEWWFOEBHXTQTTZUMO
---Accuracy: 100.0%
-- Repetition: 11
---Constructed labels: VGREAAH8TVRHBYN_UGCOLO4EUERDOOHCIFOMDNU6LQCPKEIREKOYRQIDJXPBKOJDWZEUEWWFOEBHXTQTTZUMO
---True labels       : VGREAAH8TVRHBYN_UGCOLO4EUERDOOHCIFOMDNU6LQCPKEIREKOYRQIDJXPBKOJDWZEUEWWFOEBHXTQTTZUMO
---Accuracy: 100.0%
-- Repetition: 12
---Constructed labels: VGREAAH8TVRHBYN_UGCOLO4EUERDOOHCIFOMDNU6LQCPKEIREKOYRQIDJXPBKOJDWZEUEWWFOEBHXTQTTZUMO
---True labels       : VGREAAH8TVRHBYN_UGCOLO4EUERDOOHCIFOMDNU6LQCPKEIREKOYRQIDJXPBKOJDWZEUEWWFOEBHXTQTTZUMO
---Accuracy: 100.0%
-- Repetition: 13
---Constructed labels: VGREAAH8TVRHBYN_UGCOLO4EUERDOOHCIFOMDNU6LQCPKEIREKOYRQIDJXPBKOJDWZEUEWWFOEBHXTQTTZUMO
---True labels       : VGREAAH8TVRHBYN_UGCOLO4EUERDOOHCIFOMDNU6LQCPKEIREKOYRQIDJXPBKOJDWZEUEWWFOEBHXTQTTZUMO
---Accuracy: 100.0%
-- Repetition: 14
---Constructed labels: VGREAAH8TVRHBYN_UGCOLO4EUERDOOHCIFOMDNU6LQCPKEIREKOYRQIDJXPBKOJDWZEUEWWFOEBHXTQTTZUMO
---True labels       : VGREAAH8TVRHBYN_UGCOLO4EUERDOOHCIFOMDNU6LQCPKEIREKOYRQIDJXPBKOJDWZEUEWWFOEBHXTQTTZUMO
---Accuracy: 100.0%
-- Repetition: 15
---Constructed labels: VGREAAH8TVRHBYN_UGCOLO4EUERDOOHCIFOMDNU6LQCPKEIREKOYRQIDJXPBKOJDWZEUEWWFOEBHXTQTTZUMO
---True labels       : VGREAAH8TVRHBYN_UGCOLO4EUERDOOHCIFOMDNU6LQCPKEIREKOYRQIDJXPBKOJDWZEUEWWFOEBHXTQTTZUMO
---Accuracy: 100.0%
==== End classifier: DecisionTreeClassifier
==== Start classifier: RandomForestClassifier
-- Repetition: 1
---Constructed labels: 8_REAAH8TXRH6_6_XG7R_O4EUE_FOO_C7FOMFN76_QCPKE_RE9OYR_7DJXPFL7JDXZE7EX9FREB6_TQT6ZUM7
---True labels       : VGREAAH8TVRHBYN_UGCOLO4EUERDOOHCIFOMDNU6LQCPKEIREKOYRQIDJXPBKOJDWZEUEWWFOEBHXTQTTZUMO
---Accuracy: 61.2%
-- Repetition: 2
---Constructed labels: VGREAAH8TVRHB56_UGCRLO4EUERDOOHCIFOMFNU6LQCPKEIREKOYRQ7DJXPBKOJDWZEUEW9FOEB6XTQTTZUM7
---True labels       : VGREAAH8TVRHBYN_UGCOLO4EUERDOOHCIFOMDNU6LQCPKEIREKOYRQIDJXPBKOJDWZEUEWWFOEBHXTQTTZUMO
---Accuracy: 90.6%
-- Repetition: 3
---Constructed labels: VGREAAH8TVRHBY6_UGCOLO4EUERDOOHCIFOMDNU6LQCPKEIRE9OYRQIDJXPBKOJDWZEUEWWFOEBHXTQTTZUMO
---True labels       : VGREAAH8TVRHBYN_UGCOLO4EUERDOOHCIFOMDNU6LQCPKEIREKOYRQIDJXPBKOJDWZEUEWWFOEBHXTQTTZUMO
---Accuracy: 97.6%
-- Repetition: 4
---Constructed labels: VGREAAH8TVRHBYN_UGCOLO4EUERDOOHCIFOMDNU6LQCPKEIRE9OYRQIDJXPBKOJDWZEUEWWFOEBHXTQTTZUMO
---True labels       : VGREAAH8TVRHBYN_UGCOLO4EUERDOOHCIFOMDNU6LQCPKEIREKOYRQIDJXPBKOJDWZEUEWWFOEBHXTQTTZUMO
---Accuracy: 98.8%
-- Repetition: 5
---Constructed labels: VGREAAH8TVRHBYN_UGCOLO4EUERDOOHCIFOMDNU6LQCPKEIREKOYRQIDJXPBKOJDWZEUEWWFOEBHXTQTTZUMO
---True labels       : VGREAAH8TVRHBYN_UGCOLO4EUERDOOHCIFOMDNU6LQCPKEIREKOYRQIDJXPBKOJDWZEUEWWFOEBHXTQTTZUMO
---Accuracy: 100.0%
-- Repetition: 6
---Constructed labels: VGREAAH8TVRHBYN_UGCOLO4EUERDOOHCIFOMDNU6LQCPKEIREKOYRQIDJXPBKOJDWZEUEWWFOEBHXTQTTZUMO
---True labels       : VGREAAH8TVRHBYN_UGCOLO4EUERDOOHCIFOMDNU6LQCPKEIREKOYRQIDJXPBKOJDWZEUEWWFOEBHXTQTTZUMO
---Accuracy: 100.0%
-- Repetition: 7
---Constructed labels: VGREAAH8TVRHBYN_UGCOLO4EUERDOOHCIFOMDNU6LQCPKEIREKOYRQIDJXPBKOJDWZEUEWWFOEBHXTQTTZUMO
---True labels       : VGREAAH8TVRHBYN_UGCOLO4EUERDOOHCIFOMDNU6LQCPKEIREKOYRQIDJXPBKOJDWZEUEWWFOEBHXTQTTZUMO
---Accuracy: 100.0%
-- Repetition: 8
---Constructed labels: VGREAAH8TVRHBYN_UGCOLO4EUERDOOHCIFOMDNU6LQCPKEIREKOYRQIDJXPBKOJDWZEUEWWFOEBHXTQTTZUMO
---True labels       : VGREAAH8TVRHBYN_UGCOLO4EUERDOOHCIFOMDNU6LQCPKEIREKOYRQIDJXPBKOJDWZEUEWWFOEBHXTQTTZUMO
---Accuracy: 100.0%
-- Repetition: 9
---Constructed labels: VGREAAH8TVRHBYN_UGCOLO4EUERDOOHCIFOMDNU6LQCPKEIREKOYRQIDJXPBKOJDWZEUEWWFOEBHXTQTTZUMO
---True labels       : VGREAAH8TVRHBYN_UGCOLO4EUERDOOHCIFOMDNU6LQCPKEIREKOYRQIDJXPBKOJDWZEUEWWFOEBHXTQTTZUMO
---Accuracy: 100.0%
-- Repetition: 10
---Constructed labels: VGREAAH8TVRHBYN_UGCOLO4EUERDOOHCIFOMDNU6LQCPKEIREKOYRQIDJXPBKOJDWZEUEWWFOEBHXTQTTZUMO
---True labels       : VGREAAH8TVRHBYN_UGCOLO4EUERDOOHCIFOMDNU6LQCPKEIREKOYRQIDJXPBKOJDWZEUEWWFOEBHXTQTTZUMO
---Accuracy: 100.0%
-- Repetition: 11
---Constructed labels: VGREAAH8TVRHBYN_UGCOLO4EUERDOOHCIFOMDNU6LQCPKEIREKOYRQIDJXPBKOJDWZEUEWWFOEBHXTQTTZUMO
---True labels       : VGREAAH8TVRHBYN_UGCOLO4EUERDOOHCIFOMDNU6LQCPKEIREKOYRQIDJXPBKOJDWZEUEWWFOEBHXTQTTZUMO
---Accuracy: 100.0%
-- Repetition: 12
---Constructed labels: VGREAAH8TVRHBYN_UGCOLO4EUERDOOHCIFOMDNU6LQCPKEIREKOYRQIDJXPBKOJDWZEUEWWFOEBHXTQTTZUMO
---True labels       : VGREAAH8TVRHBYN_UGCOLO4EUERDOOHCIFOMDNU6LQCPKEIREKOYRQIDJXPBKOJDWZEUEWWFOEBHXTQTTZUMO
---Accuracy: 100.0%
-- Repetition: 13
---Constructed labels: VGREAAH8TVRHBYN_UGCOLO4EUERDOOHCIFOMDNU6LQCPKEIREKOYRQIDJXPBKOJDWZEUEWWFOEBHXTQTTZUMO
---True labels       : VGREAAH8TVRHBYN_UGCOLO4EUERDOOHCIFOMDNU6LQCPKEIREKOYRQIDJXPBKOJDWZEUEWWFOEBHXTQTTZUMO
---Accuracy: 100.0%
-- Repetition: 14
---Constructed labels: VGREAAH8TVRHBYN_UGCOLO4EUERDOOHCIFOMDNU6LQCPKEIREKOYRQIDJXPBKOJDWZEUEWWFOEBHXTQTTZUMO
---True labels       : VGREAAH8TVRHBYN_UGCOLO4EUERDOOHCIFOMDNU6LQCPKEIREKOYRQIDJXPBKOJDWZEUEWWFOEBHXTQTTZUMO
---Accuracy: 100.0%
-- Repetition: 15
---Constructed labels: VGREAAH8TVRHBYN_UGCOLO4EUERDOOHCIFOMDNU6LQCPKEIREKOYRQIDJXPBKOJDWZEUEWWFOEBHXTQTTZUMO
---True labels       : VGREAAH8TVRHBYN_UGCOLO4EUERDOOHCIFOMDNU6LQCPKEIREKOYRQIDJXPBKOJDWZEUEWWFOEBHXTQTTZUMO
---Accuracy: 100.0%
==== End classifier: RandomForestClassifier
==== Start classifier: LDA_scikitlearn
-- Repetition: 1
---Constructed labels: FJ_QF___UW3_6_5_1GFO_R_FU_RDRRT_6_O5FXX9_K6P__LR_9O_XL7J_XPB9IJJQ_41F9_FQ_FLXTRZR67_R
---True labels       : VGREAAH8TVRHBYN_UGCOLO4EUERDOOHCIFOMDNU6LQCPKEIREKOYRQIDJXPBKOJDWZEUEWWFOEBHXTQTTZUMO
---Accuracy: 20.0%
-- Repetition: 2
---Constructed labels: VJREF5X8TW3_6S7_1GCO_Q4FU9RDOOT_H_O54XU9_K7PK_LR49O_XQ7J_XPBEOJDQXE1F9WFOFBLXTRZNZ7RQ
---True labels       : VGREAAH8TVRHBYN_UGCOLO4EUERDOOHCIFOMDNU6LQCPKEIREKOYRQIDJXPBKOJDWZEUEWWFOEBHXTQTTZUMO
---Accuracy: 42.4%
-- Repetition: 3
---Constructed labels: VJRE15H8TV3F6YN_1MCOXO4FUERDOOHFHFO54TU6_K7PK_L_39O8RQ7JJXPBEOJDQUE1FWWFOKBHXTRZNZUMQ
---True labels       : VGREAAH8TVRHBYN_UGCOLO4EUERDOOHCIFOMDNU6LQCPKEIREKOYRQIDJXPBKOJDWZEUEWWFOEBHXTQTTZUMO
---Accuracy: 57.6%
-- Repetition: 4
---Constructed labels: VJRE7GH8TV446YN_1GCOXO4FUERDOOHFIFOMCNU6_K7PKFHR3EO8RQ7JJXPBEOJDQUE1FWWFOKBHXTQTNZUMO
---True labels       : VGREAAH8TVRHBYN_UGCOLO4EUERDOOHCIFOMDNU6LQCPKEIREKOYRQIDJXPBKOJDWZEUEWWFOEBHXTQTTZUMO
---Accuracy: 67.1%
-- Repetition: 5
---Constructed labels: VGREEAH8TVRZ6YN_1GEOLO4FUERDOOHFHFOMCNU6LKCPKFHR3KO8RQIJJXPBKOJDQUE1FWWFOKBHXTQTTZUMO
---True labels       : VGREAAH8TVRHBYN_UGCOLO4EUERDOOHCIFOMDNU6LQCPKEIREKOYRQIDJXPBKOJDWZEUEWWFOEBHXTQTTZUMO
---Accuracy: 76.5%
-- Repetition: 6
---Constructed labels: VGREEAH8TVRZHYN_1GEOLO4FUERDOOHFTFOMCNU6LQCPKFIREKO8RQ1JJXPBKOJDQVE1FWWFOEBHXTQTZZUMO
---True labels       : VGREAAH8TVRHBYN_UGCOLO4EUERDOOHCIFOMDNU6LQCPKEIREKOYRQIDJXPBKOJDWZEUEWWFOEBHXTQTTZUMO
---Accuracy: 78.8%
-- Repetition: 7
---Constructed labels: VGRE1AH8TVRHBYN_1GEOLO4FUERDOOHFIFOMDNU6LQCPKEIREKO8RQ1JJXPBKOJDWVE1EWWFOEBHXTQTZZUMO
---True labels       : VGREAAH8TVRHBYN_UGCOLO4EUERDOOHCIFOMDNU6LQCPKEIREKOYRQIDJXPBKOJDWZEUEWWFOEBHXTQTTZUMO
---Accuracy: 87.1%
-- Repetition: 8
---Constructed labels: VGRE1AH8TVRHBYN_1GEOLO4EUERDOOHFIFOMFNU9LECPKEIREKO8RK1DJXPBKOJDWWE1EWWFOEBHXTQTZZUMO
---True labels       : VGREAAH8TVRHBYN_UGCOLO4EUERDOOHCIFOMDNU6LQCPKEIREKOYRQIDJXPBKOJDWZEUEWWFOEBHXTQTTZUMO
---Accuracy: 84.7%
-- Repetition: 9
---Constructed labels: VGRECGH8TVRHBYN_3GCOLO4EUERDOOHFIFOMFNU9LQIPKEIREKO8RQ1DJXPBKOJDWVE1EWWFOEBHXTQTZZUMO
---True labels       : VGREAAH8TVRHBYN_UGCOLO4EUERDOOHCIFOMDNU6LQCPKEIREKOYRQIDJXPBKOJDWZEUEWWFOEBHXTQTTZUMO
---Accuracy: 85.9%
-- Repetition: 10
---Constructed labels: VGRECGH8TVRHBYN_UGCOLO4EUERDOOHFIFOMFNU6LQIPKEIREKO8RQ1DJXPBKOJDWVE1EWWFOEBHXTQTTZUMO
---True labels       : VGREAAH8TVRHBYN_UGCOLO4EUERDOOHCIFOMDNU6LQCPKEIREKOYRQIDJXPBKOJDWZEUEWWFOEBHXTQTTZUMO
---Accuracy: 89.4%
-- Repetition: 11
---Constructed labels: VGRECGH8TVRHBYN_UGCOLO4EUERDOOHFIFOMDNU6LQCPKEIREKO8RQ1DJXPBKOJDWWEUEWWFOEBHXTQTTZUMO
---True labels       : VGREAAH8TVRHBYN_UGCOLO4EUERDOOHCIFOMDNU6LQCPKEIREKOYRQIDJXPBKOJDWZEUEWWFOEBHXTQTTZUMO
---Accuracy: 92.9%
-- Repetition: 12
---Constructed labels: VGRECAH8TVRHBYN_UGCOLO4EUERDOOHFIFOMDNU6LQCPKEIREKO8RQ1DJXPBKOJDWVEUEWWFOEBHXTQTTZUMO
---True labels       : VGREAAH8TVRHBYN_UGCOLO4EUERDOOHCIFOMDNU6LQCPKEIREKOYRQIDJXPBKOJDWZEUEWWFOEBHXTQTTZUMO
---Accuracy: 94.1%
-- Repetition: 13
---Constructed labels: VGRECAH8TVRHBYN_UGCOLO4EUERDOOHFIFOMDNU6LQCPKEIREKOJRQ1DJXPBKOJDWVEUEWWFOEBHXTQTTZUMO
---True labels       : VGREAAH8TVRHBYN_UGCOLO4EUERDOOHCIFOMDNU6LQCPKEIREKOYRQIDJXPBKOJDWZEUEWWFOEBHXTQTTZUMO
---Accuracy: 94.1%
-- Repetition: 14
---Constructed labels: VGRECAH8TVRHBYN_UGCOLO4EUERDOOHCIFOMDNU6LQCPKEIREKO2RQIDJXPBKOJDWVEUEWWFOEBHXTQTTZUMO
---True labels       : VGREAAH8TVRHBYN_UGCOLO4EUERDOOHCIFOMDNU6LQCPKEIREKOYRQIDJXPBKOJDWZEUEWWFOEBHXTQTTZUMO
---Accuracy: 96.5%
-- Repetition: 15
---Constructed labels: VGRECAH8TVRHBYN_UGCOLO4EUERDOOHCIFOMDNU6LQCPKEIREKO2RQIDJXPBKOJDWVEUEWWFOEBHXTQTTZUMO
---True labels       : VGREAAH8TVRHBYN_UGCOLO4EUERDOOHCIFOMDNU6LQCPKEIREKOYRQIDJXPBKOJDWZEUEWWFOEBHXTQTTZUMO
---Accuracy: 96.5%
==== End classifier: LDA_scikitlearn
==== Start classifier: QuadraticDiscriminantAnalysis
-- Repetition: 1
---Constructed labels: 8_REAAH8TXRH6_6_XG7R_O4EUE_FOO_C7FOMFN76_QCPKE_RE9OYR_7DJXPFL7JDXZE7EX9FREB6_TQT6ZUM7
---True labels       : VGREAAH8TVRHBYN_UGCOLO4EUERDOOHCIFOMDNU6LQCPKEIREKOYRQIDJXPBKOJDWZEUEWWFOEBHXTQTTZUMO
---Accuracy: 61.2%
-- Repetition: 2
---Constructed labels: VGREAAH8TVRHB56_UGCRLO4EUERDOOHCIFOMFNU6LQCPKEIREKOYRQ7DJXPBKOJDWZEUEW9FOEB6XTQTTZUM7
---True labels       : VGREAAH8TVRHBYN_UGCOLO4EUERDOOHCIFOMDNU6LQCPKEIREKOYRQIDJXPBKOJDWZEUEWWFOEBHXTQTTZUMO
---Accuracy: 90.6%
-- Repetition: 3
---Constructed labels: VGREAAH8TVRHBY6_UGCOLO4EUERDOOHCIFOMDNU6LQCPKEIREKOYRQIDJXPBKOJDWZEUEWWFOEBHXTQTTZUMO
---True labels       : VGREAAH8TVRHBYN_UGCOLO4EUERDOOHCIFOMDNU6LQCPKEIREKOYRQIDJXPBKOJDWZEUEWWFOEBHXTQTTZUMO
---Accuracy: 98.8%
-- Repetition: 4
---Constructed labels: VGREAAH8TVRHBYN_UGCOLO4EUERDOOHCIFOMDNU6LQCPKEIREKOYRQIDJXPBKOJDWZEUEWWFOEBHXTQTTZUMO
---True labels       : VGREAAH8TVRHBYN_UGCOLO4EUERDOOHCIFOMDNU6LQCPKEIREKOYRQIDJXPBKOJDWZEUEWWFOEBHXTQTTZUMO
---Accuracy: 100.0%
-- Repetition: 5
---Constructed labels: VGREAAH8TVRHBYN_UGCOLO4EUERDOOHCIFOMDNU6LQCPKEIREKOYRQIDJXPBKOJDWZEUEWWFOEBHXTQTTZUMO
---True labels       : VGREAAH8TVRHBYN_UGCOLO4EUERDOOHCIFOMDNU6LQCPKEIREKOYRQIDJXPBKOJDWZEUEWWFOEBHXTQTTZUMO
---Accuracy: 100.0%
-- Repetition: 6
---Constructed labels: VGREAAH8TVRHBYN_UGCOLO4EUERDOOHCIFOMDNU6LQCPKEIREKOYRQIDJXPBKOJDWZEUEWWFOEBHXTQTTZUMO
---True labels       : VGREAAH8TVRHBYN_UGCOLO4EUERDOOHCIFOMDNU6LQCPKEIREKOYRQIDJXPBKOJDWZEUEWWFOEBHXTQTTZUMO
---Accuracy: 100.0%
-- Repetition: 7
---Constructed labels: VGREAAH8TVRHBYN_UGCOLO4EUERDOOHCIFOMDNU6LQCPKEIREKOYRQIDJXPBKOJDWZEUEWWFOEBHXTQTTZUMO
---True labels       : VGREAAH8TVRHBYN_UGCOLO4EUERDOOHCIFOMDNU6LQCPKEIREKOYRQIDJXPBKOJDWZEUEWWFOEBHXTQTTZUMO
---Accuracy: 100.0%
-- Repetition: 8
---Constructed labels: VGREAAH8TVRHBYN_UGCOLO4EUERDOOHCIFOMDNU6LQCPKEIREKOYRQIDJXPBKOJDWZEUEWWFOEBHXTQTTZUMO
---True labels       : VGREAAH8TVRHBYN_UGCOLO4EUERDOOHCIFOMDNU6LQCPKEIREKOYRQIDJXPBKOJDWZEUEWWFOEBHXTQTTZUMO
---Accuracy: 100.0%
-- Repetition: 9
---Constructed labels: VGREAAH8TVRHBYN_UGCOLO4EUERDOOHCIFOMDNU6LQCPKEIREKOYRQIDJXPBKOJDWZEUEWWFOEBHXTQTTZUMO
---True labels       : VGREAAH8TVRHBYN_UGCOLO4EUERDOOHCIFOMDNU6LQCPKEIREKOYRQIDJXPBKOJDWZEUEWWFOEBHXTQTTZUMO
---Accuracy: 100.0%
-- Repetition: 10
---Constructed labels: VGREAAH8TVRHBYN_UGCOLO4EUERDOOHCIFOMDNU6LQCPKEIREKOYRQIDJXPBKOJDWZEUEWWFOEBHXTQTTZUMO
---True labels       : VGREAAH8TVRHBYN_UGCOLO4EUERDOOHCIFOMDNU6LQCPKEIREKOYRQIDJXPBKOJDWZEUEWWFOEBHXTQTTZUMO
---Accuracy: 100.0%
-- Repetition: 11
---Constructed labels: VGREAAH8TVRHBYN_UGCOLO4EUERDOOHCIFOMDNU6LQCPKEIREKOYRQIDJXPBKOJDWZEUEWWFOEBHXTQTTZUMO
---True labels       : VGREAAH8TVRHBYN_UGCOLO4EUERDOOHCIFOMDNU6LQCPKEIREKOYRQIDJXPBKOJDWZEUEWWFOEBHXTQTTZUMO
---Accuracy: 100.0%
-- Repetition: 12
---Constructed labels: VGREAAH8TVRHBYN_UGCOLO4EUERDOOHCIFOMDNU6LQCPKEIREKOYRQIDJXPBKOJDWZEUEWWFOEBHXTQTTZUMO
---True labels       : VGREAAH8TVRHBYN_UGCOLO4EUERDOOHCIFOMDNU6LQCPKEIREKOYRQIDJXPBKOJDWZEUEWWFOEBHXTQTTZUMO
---Accuracy: 100.0%
-- Repetition: 13
---Constructed labels: VGREAAH8TVRHBYN_UGCOLO4EUERDOOHCIFOMDNU6LQCPKEIREKOYRQIDJXPBKOJDWZEUEWWFOEBHXTQTTZUMO
---True labels       : VGREAAH8TVRHBYN_UGCOLO4EUERDOOHCIFOMDNU6LQCPKEIREKOYRQIDJXPBKOJDWZEUEWWFOEBHXTQTTZUMO
---Accuracy: 100.0%
-- Repetition: 14
---Constructed labels: VGREAAH8TVRHBYN_UGCOLO4EUERDOOHCIFOMDNU6LQCPKEIREKOYRQIDJXPBKOJDWZEUEWWFOEBHXTQTTZUMO
---True labels       : VGREAAH8TVRHBYN_UGCOLO4EUERDOOHCIFOMDNU6LQCPKEIREKOYRQIDJXPBKOJDWZEUEWWFOEBHXTQTTZUMO
---Accuracy: 100.0%
-- Repetition: 15
---Constructed labels: VGREAAH8TVRHBYN_UGCOLO4EUERDOOHCIFOMDNU6LQCPKEIREKOYRQIDJXPBKOJDWZEUEWWFOEBHXTQTTZUMO
---True labels       : VGREAAH8TVRHBYN_UGCOLO4EUERDOOHCIFOMDNU6LQCPKEIREKOYRQIDJXPBKOJDWZEUEWWFOEBHXTQTTZUMO
---Accuracy: 100.0%
==== End classifier: QuadraticDiscriminantAnalysis
==== Start classifier: LinearSVC
-- Repetition: 1
---Constructed labels: FJ_QF___UW376_6_1GFN_R_FU_RDRR6_6_O5FX_6LE6P__LR_9O_X_7J8XPB_IJJQ_41F99FQ_CGXTRZX_7_R
---True labels       : VGREAAH8TVRHBYN_UGCOLO4EUERDOOHCIFOMDNU6LQCPKEIREKOYRQIDJXPBKOJDWZEUEWWFOEBHXTQTTZUMO
---Accuracy: 21.2%
-- Repetition: 2
---Constructed labels: VJREF5X_TW376S6_1GCO_Q4FU9RDROH_H_O5FX76LE7P99IR39O_XQ7J8XPBFOJDQXF1F9WFOFCGXTQZT47_O
---True labels       : VGREAAH8TVRHBYN_UGCOLO4EUERDOOHCIFOMDNU6LQCPKEIREKOYRQIDJXPBKOJDWZEUEWWFOEBHXTQTTZUMO
---Accuracy: 42.4%
-- Repetition: 3
---Constructed labels: VJRE15H_TV3I6YN_1MCOXO4FUERDOOHFHFO5FTU6LE7P93IR39O8RQ7JJXPBFOJDQUFUFWWFOLCHXTQZT3UMO
---True labels       : VGREAAH8TVRHBYN_UGCOLO4EUERDOOHCIFOMDNU6LQCPKEIREKOYRQIDJXPBKOJDWZEUEWWFOEBHXTQTTZUMO
---Accuracy: 60.0%
-- Repetition: 4
---Constructed labels: VJRE7AH_TV4I6YN_1GCOXO4FUERDOOHCIFOMCNU6LE7P93IR39O9RQ7JJXPBEOJDQUFUFWWFOKBHXTQTT3UMO
---True labels       : VGREAAH8TVRHBYN_UGCOLO4EUERDOOHCIFOMDNU6LQCPKEIREKOYRQIDJXPBKOJDWZEUEWWFOEBHXTQTTZUMO
---Accuracy: 69.4%
-- Repetition: 5
---Constructed labels: VGREEAH8TV4IHYN_1GEOLO4FUERDOOHCHFOMCNU6LECPK3IR3KO9RQIJJXPBEOJDWUFUFWWFOKBHXTQTTZUMO
---True labels       : VGREAAH8TVRHBYN_UGCOLO4EUERDOOHCIFOMDNU6LQCPKEIREKOYRQIDJXPBKOJDWZEUEWWFOEBHXTQTTZUMO
---Accuracy: 77.6%
-- Repetition: 6
---Constructed labels: VGREEAH8TV4HKYN_1GEOLO4FUERDOOHCTFOMCNU6LQCPK3IREKO8RQIJJXPBKOJDWUEUFWWFOEBHXTQTTZUMO
---True labels       : VGREAAH8TVRHBYN_UGCOLO4EUERDOOHCIFOMDNU6LQCPKEIREKOYRQIDJXPBKOJDWZEUEWWFOEBHXTQTTZUMO
---Accuracy: 84.7%
-- Repetition: 7
---Constructed labels: VGRE1AH8TV4HHYN_1GEOLO4EUERDOOHCIFOMDNU6LQCPK3IREKO8RQIJJXPBKOJDWUEUFWWFOEBHXTQTTZUMO
---True labels       : VGREAAH8TVRHBYN_UGCOLO4EUERDOOHCIFOMDNU6LQCPKEIREKOYRQIDJXPBKOJDWZEUEWWFOEBHXTQTTZUMO
---Accuracy: 88.2%
-- Repetition: 8
---Constructed labels: VGRE1AH8TVRHHYN_1GEOLO4EUERDOOHCIFOMFNU6LECPK3IREKO8RQIDJXPBKOJDWWEUEWWFOEBHXTQTTZUMO
---True labels       : VGREAAH8TVRHBYN_UGCOLO4EUERDOOHCIFOMDNU6LQCPKEIREKOYRQIDJXPBKOJDWZEUEWWFOEBHXTQTTZUMO
---Accuracy: 89.4%
-- Repetition: 9
---Constructed labels: VGRECGH8TVRHBYN_3GEOLO4EUERDOOHCIFOMFNU6LQCPK3IREKO8RQIDJXPBKOJDWWEUEWWFOEBHXTQTT3UMO
---True labels       : VGREAAH8TVRHBYN_UGCOLO4EUERDOOHCIFOMDNU6LQCPKEIREKOYRQIDJXPBKOJDWZEUEWWFOEBHXTQTTZUMO
---Accuracy: 89.4%
-- Repetition: 10
---Constructed labels: VGRECGH9TVRHBYN_1GCOLO4EUERDOOHCIFOMFNU6LQCPKEIREKO8RQIDJXPBKOJDWWEUEWWFOEBHXTQTT3UMO
---True labels       : VGREAAH8TVRHBYN_UGCOLO4EUERDOOHCIFOMDNU6LQCPKEIREKOYRQIDJXPBKOJDWZEUEWWFOEBHXTQTTZUMO
---Accuracy: 90.6%
-- Repetition: 11
---Constructed labels: VGRECGH8TVRHBYN_1GCOLO4EUERDOOHCIFOMDNU6LQCPKEIREKO8RQIDJXPBKOJDWWEUEWWFOEBHXTQTTZUMO
---True labels       : VGREAAH8TVRHBYN_UGCOLO4EUERDOOHCIFOMDNU6LQCPKEIREKOYRQIDJXPBKOJDWZEUEWWFOEBHXTQTTZUMO
---Accuracy: 94.1%
-- Repetition: 12
---Constructed labels: VGRECAH8TVRHBYN_1GCOLO4EUERDOOHCIFOMDNU6LQCPKEIREKO8RQIDJXPBEOJDWWEUEWWFOEBHXTQTT3UMO
---True labels       : VGREAAH8TVRHBYN_UGCOLO4EUERDOOHCIFOMDNU6LQCPKEIREKOYRQIDJXPBKOJDWZEUEWWFOEBHXTQTTZUMO
---Accuracy: 92.9%
-- Repetition: 13
---Constructed labels: VGRECAH8TVRHBYN_UGCOLO4EUERDOOHCIFOMDNU6LQCPKEIREKO8RQIDJXPBEOJDWWEUEWWFOEBHXTQTT3UMO
---True labels       : VGREAAH8TVRHBYN_UGCOLO4EUERDOOHCIFOMDNU6LQCPKEIREKOYRQIDJXPBKOJDWZEUEWWFOEBHXTQTTZUMO
---Accuracy: 94.1%
-- Repetition: 14
---Constructed labels: VGRECAH8TVRHBYN_UGCOLO4EUERDOOHCIFOMDNU6LQCPKEIREKO8RQIDJXPBEOJDWWEUEWWFOEBHXTQTT3UMO
---True labels       : VGREAAH8TVRHBYN_UGCOLO4EUERDOOHCIFOMDNU6LQCPKEIREKOYRQIDJXPBKOJDWZEUEWWFOEBHXTQTTZUMO
---Accuracy: 94.1%
-- Repetition: 15
---Constructed labels: VGRECAH8TVRHBYN_UGCOLO4EUERDOOHCIFOMDNU6LQCPKEIREKO8RQIDJXPBEOJDWXEUEWWFOEBHXTQTT3UMO
---True labels       : VGREAAH8TVRHBYN_UGCOLO4EUERDOOHCIFOMDNU6LQCPKEIREKOYRQIDJXPBKOJDWZEUEWWFOEBHXTQTTZUMO
---Accuracy: 94.1%
==== End classifier: LinearSVC
==== Start classifier: SVC
-- Repetition: 1
---Constructed labels: V_REA5H8TXRL6_6_4GCO_O4EUERPOO6C7FOMDN76_QCPKFLRE9O5R_7DJXPBK7JDX6E7EW9FOEBHXTQZ6ZUP7
---True labels       : VGREAAH8TVRHBYN_UGCOLO4EUERDOOHCIFOMDNU6LQCPKEIREKOYRQIDJXPBKOJDWZEUEWWFOEBHXTQTTZUMO
---Accuracy: 65.9%
-- Repetition: 2
---Constructed labels: VGREB5H8TVRHB56_1GCOLO4EUERDOOHCIFOMDNU6LQCPKEIRWKO5RQ7DJXPBKOLDW6EUEW9FOEBHXTQTTZUMO
---True labels       : VGREAAH8TVRHBYN_UGCOLO4EUERDOOHCIFOMDNU6LQCPKEIREKOYRQIDJXPBKOJDWZEUEWWFOEBHXTQTTZUMO
---Accuracy: 87.1%
-- Repetition: 3
---Constructed labels: VGREBAH8TVRHBY6_UGCOLO4EUERDOOHCIFOMDNU6LQCPKEIRWKOYRQIDJXPBKOJDWZEUEWWFOEBHXTQTTZUMO
---True labels       : VGREAAH8TVRHBYN_UGCOLO4EUERDOOHCIFOMDNU6LQCPKEIREKOYRQIDJXPBKOJDWZEUEWWFOEBHXTQTTZUMO
---Accuracy: 96.5%
-- Repetition: 4
---Constructed labels: VGREBAH8TVRHBYN_UGCOLO4EUERDOOHCIFOMDNU6LQCPKEIREKOYRQIDJXPBKOJDWZEUEWWFOEBHXTQTTZUMO
---True labels       : VGREAAH8TVRHBYN_UGCOLO4EUERDOOHCIFOMDNU6LQCPKEIREKOYRQIDJXPBKOJDWZEUEWWFOEBHXTQTTZUMO
---Accuracy: 98.8%
-- Repetition: 5
---Constructed labels: VGREAAH8TVRHBYN_UGCOLO4EUERDOOHCIFOMDNU6LQCPKEIREKOYRQIDJXPBKOJDWZEUEWWFOEBHXTQTTZUMO
---True labels       : VGREAAH8TVRHBYN_UGCOLO4EUERDOOHCIFOMDNU6LQCPKEIREKOYRQIDJXPBKOJDWZEUEWWFOEBHXTQTTZUMO
---Accuracy: 100.0%
-- Repetition: 6
---Constructed labels: VGREAAH8TVRHBYN_UGCOLO4EUERDOOHCIFOMDNU6LQCPKEIREKO2RQIDJXPBKOJDWZEUEWWFOEBHXTQTTZUMO
---True labels       : VGREAAH8TVRHBYN_UGCOLO4EUERDOOHCIFOMDNU6LQCPKEIREKOYRQIDJXPBKOJDWZEUEWWFOEBHXTQTTZUMO
---Accuracy: 98.8%
-- Repetition: 7
---Constructed labels: VGREAAH8TVRHBYN_UGCOLO4EUERDOOHCIFOMDNU6LQCPKEIREKO2RQIDJXPBKOJDWZEUEWWFOEBHXTQTTZUMO
---True labels       : VGREAAH8TVRHBYN_UGCOLO4EUERDOOHCIFOMDNU6LQCPKEIREKOYRQIDJXPBKOJDWZEUEWWFOEBHXTQTTZUMO
---Accuracy: 98.8%
-- Repetition: 8
---Constructed labels: VGREAAH8TVRHBYN_UGCOLO4EUERDOOHCIFOMDNU6LQCPKEIREKO2RQIDJXPBKOJDWZEUEWWFOEBHXTQTTZUMO
---True labels       : VGREAAH8TVRHBYN_UGCOLO4EUERDOOHCIFOMDNU6LQCPKEIREKOYRQIDJXPBKOJDWZEUEWWFOEBHXTQTTZUMO
---Accuracy: 98.8%
-- Repetition: 9
---Constructed labels: VGREAAH8TVRHBYN_UGCOLO4EUERDOOHCIFOMDNU6LQCPKEIREKOYRQIDJXPBKOJDWZEUEWWFOEBHXTQTTZUMO
---True labels       : VGREAAH8TVRHBYN_UGCOLO4EUERDOOHCIFOMDNU6LQCPKEIREKOYRQIDJXPBKOJDWZEUEWWFOEBHXTQTTZUMO
---Accuracy: 100.0%
-- Repetition: 10
---Constructed labels: VGREAAH8TVRHBYN_UGCOLO4EUERDOOHCIFOMDNU6LQCPKEIREKOYRQIDJXPBKOJDWZEUEWWFOEBHXTQTTZUMO
---True labels       : VGREAAH8TVRHBYN_UGCOLO4EUERDOOHCIFOMDNU6LQCPKEIREKOYRQIDJXPBKOJDWZEUEWWFOEBHXTQTTZUMO
---Accuracy: 100.0%
-- Repetition: 11
---Constructed labels: VGREAAH8TVRHBYN_UGCOLO4EUERDOOHCIFOMDNU6LQCPKEIREKOYRQIDJXPBKOJDWZEUEWWFOEBHXTQTTZUMO
---True labels       : VGREAAH8TVRHBYN_UGCOLO4EUERDOOHCIFOMDNU6LQCPKEIREKOYRQIDJXPBKOJDWZEUEWWFOEBHXTQTTZUMO
---Accuracy: 100.0%
-- Repetition: 12
---Constructed labels: VGREAAH8TVRHBYN_UGCOLO4EUERDOOHCIFOMDNU6LQCPKEIREKOYRQIDJXPBKOJDWZEUEWWFOEBHXTQTTZUMO
---True labels       : VGREAAH8TVRHBYN_UGCOLO4EUERDOOHCIFOMDNU6LQCPKEIREKOYRQIDJXPBKOJDWZEUEWWFOEBHXTQTTZUMO
---Accuracy: 100.0%
-- Repetition: 13
---Constructed labels: VGREAAH8TVRHBYN_UGCOLO4EUERDOOHCIFOMDNU6LQCPKEIREKOYRQIDJXPBKOJDWZEUEWWFOEBHXTQTTZUMO
---True labels       : VGREAAH8TVRHBYN_UGCOLO4EUERDOOHCIFOMDNU6LQCPKEIREKOYRQIDJXPBKOJDWZEUEWWFOEBHXTQTTZUMO
---Accuracy: 100.0%
-- Repetition: 14
---Constructed labels: VGREAAH8TVRHBYN_UGCOLO4EUERDOOHCIFOMDNU6LQCPKEIREKOYRQIDJXPBKOJDWZEUEWWFOEBHXTQTTZUMO
---True labels       : VGREAAH8TVRHBYN_UGCOLO4EUERDOOHCIFOMDNU6LQCPKEIREKOYRQIDJXPBKOJDWZEUEWWFOEBHXTQTTZUMO
---Accuracy: 100.0%
-- Repetition: 15
---Constructed labels: VGREAAH8TVRHBYN_UGCOLO4EUERDOOHCIFOMDNU6LQCPKEIREKOYRQIDJXPBKOJDWZEUEWWFOEBHXTQTTZUMO
---True labels       : VGREAAH8TVRHBYN_UGCOLO4EUERDOOHCIFOMDNU6LQCPKEIREKOYRQIDJXPBKOJDWZEUEWWFOEBHXTQTTZUMO
---Accuracy: 100.0%
==== End classifier: SVC
==== Start classifier: LDA_wyrm
-- Repetition: 1
---Constructed labels: DJREE3J7TWQOBRM_1GFOLCFEUJRDRNTWHEOMDSX6LENPPFIREKOFXKOJJXPB3IJDQ7C1F9WFO2CGWTQTUZU5N
---True labels       : VGREAAH8TVRHBYN_UGCOLO4EUERDOOHCIFOMDNU6LQCPKEIREKOYRQIDJXPBKOJDWZEUEWWFOEBHXTQTTZUMO
---Accuracy: 43.5%
-- Repetition: 2
---Constructed labels: VGRECYH8TV3HBYN71GCOLN4DU9RDONHCIFOMDTU6LECPEEIREKOARQ7DDXPBEOJDQ7EUFWWFOEBJXTQTNZUMO
---True labels       : VGREAAH8TVRHBYN_UGCOLO4EUERDOOHCIFOMDNU6LQCPKEIREKOYRQIDJXPBKOJDWZEUEWWFOEBHXTQTTZUMO
---Accuracy: 75.3%
-- Repetition: 3
---Constructed labels: VGREUYH8TVQHBYN_1GCOLO4DUDRDOOHCIFOMDTU6LECPKFIREKODRQODJXPBEOJDWUEUEWWFOEBHXHQTTZUMI
---True labels       : VGREAAH8TVRHBYN_UGCOLO4EUERDOOHCIFOMDNU6LQCPKEIREKOYRQIDJXPBKOJDWZEUEWWFOEBHXTQTTZUMO
---Accuracy: 82.4%
-- Repetition: 4
---Constructed labels: VGREUAH8TVRHBYN_1GCOLO4EUERDOOHCIFOMDNU6LECPKEIREKOCRQODJXPBKOJDWUEUEWWFOEBHXTQTTZUMO
---True labels       : VGREAAH8TVRHBYN_UGCOLO4EUERDOOHCIFOMDNU6LQCPKEIREKOYRQIDJXPBKOJDWZEUEWWFOEBHXTQTTZUMO
---Accuracy: 92.9%
-- Repetition: 5
---Constructed labels: VGREUAH8TVRHBYM_UGCOLO4DUERDOOHCIFOMDNU6LQCPKEIREKOCRQODJXPBKOJDWVEUEWWFOEBHXTQTTZUMO
---True labels       : VGREAAH8TVRHBYN_UGCOLO4EUERDOOHCIFOMDNU6LQCPKEIREKOYRQIDJXPBKOJDWZEUEWWFOEBHXTQTTZUMO
---Accuracy: 92.9%
-- Repetition: 6
---Constructed labels: VGREUAH8TVRHBYM_UGCOLO4DUERDOOHCIFOMDNU6LQCPKEIREKOCRQIDJXPBKOJDWVEUEWWFOEBHXTQTTZUMO
---True labels       : VGREAAH8TVRHBYN_UGCOLO4EUERDOOHCIFOMDNU6LQCPKEIREKOYRQIDJXPBKOJDWZEUEWWFOEBHXTQTTZUMO
---Accuracy: 94.1%
-- Repetition: 7
---Constructed labels: VGREUAH8TVRHBYM_UGCOLO4EUERDOOHCIFOMDNU6LQCPKEIREKODRQIDJXPBKOJDWVEUEWWFOEBHXTQTTZUMO
---True labels       : VGREAAH8TVRHBYN_UGCOLO4EUERDOOHCIFOMDNU6LQCPKEIREKOYRQIDJXPBKOJDWZEUEWWFOEBHXTQTTZUMO
---Accuracy: 95.3%
-- Repetition: 8
---Constructed labels: VGREUAH8TVRHBYN_UGCOLO4EUERDOOHCIFOMDNU6LQCPKEIREKODRQIDJXPBKOJDWVEUEWWFOEBHXTQTTZUMO
---True labels       : VGREAAH8TVRHBYN_UGCOLO4EUERDOOHCIFOMDNU6LQCPKEIREKOYRQIDJXPBKOJDWZEUEWWFOEBHXTQTTZUMO
---Accuracy: 96.5%
-- Repetition: 9
---Constructed labels: VGREUAH8TVRHBYN_UGCOLO4EUERDOOHCIFOMDNU6LQCPKEIREKODRQIDJXPBKOJDWVEUEWWFOEBHXTQTTZUMO
---True labels       : VGREAAH8TVRHBYN_UGCOLO4EUERDOOHCIFOMDNU6LQCPKEIREKOYRQIDJXPBKOJDWZEUEWWFOEBHXTQTTZUMO
---Accuracy: 96.5%
-- Repetition: 10
---Constructed labels: VGRETAH8TVRHBYN_UGCOLO4EUERDOOHCIFOMDNU6LQCPKEIREKODRQIDJXPBKOJDWVEUEWWFOEBHXTQTTZUMO
---True labels       : VGREAAH8TVRHBYN_UGCOLO4EUERDOOHCIFOMDNU6LQCPKEIREKOYRQIDJXPBKOJDWZEUEWWFOEBHXTQTTZUMO
---Accuracy: 96.5%
-- Repetition: 11
---Constructed labels: VGREBAH8TVRHBYN_UGCOLO4EUERDOOHCIFOMDNU6LQCPKEIREKODRQIDJXPBKOJDWVEUEWWFOEBHXTQTTZUMO
---True labels       : VGREAAH8TVRHBYN_UGCOLO4EUERDOOHCIFOMDNU6LQCPKEIREKOYRQIDJXPBKOJDWZEUEWWFOEBHXTQTTZUMO
---Accuracy: 96.5%
-- Repetition: 12
---Constructed labels: VGREBAH8TVRHBYN_UGCOLO4EUERDOOHCIFOMDNU6LQCPKEIREKODRQIDJXPBKOJDWVEUEWWFOEBHXTQTTZUMO
---True labels       : VGREAAH8TVRHBYN_UGCOLO4EUERDOOHCIFOMDNU6LQCPKEIREKOYRQIDJXPBKOJDWZEUEWWFOEBHXTQTTZUMO
---Accuracy: 96.5%
-- Repetition: 13
---Constructed labels: VGREEAH8TVRHBYN_UGCOLO4EUERDOOHCIFOMDNU6LQCPKEIREKOJRQIDJXPBKOJDWVEUEWWFOEBHXTQTTZUMO
---True labels       : VGREAAH8TVRHBYN_UGCOLO4EUERDOOHCIFOMDNU6LQCPKEIREKOYRQIDJXPBKOJDWZEUEWWFOEBHXTQTTZUMO
---Accuracy: 96.5%
-- Repetition: 14
---Constructed labels: VGREEAH8TVRHBYN_UGCOLO4EUERDOOHCIFOMDNU6LQCPKEIREKO2RQIDJXPBKOJDWVEUEWWFOEBHXTQTTZUMO
---True labels       : VGREAAH8TVRHBYN_UGCOLO4EUERDOOHCIFOMDNU6LQCPKEIREKOYRQIDJXPBKOJDWZEUEWWFOEBHXTQTTZUMO
---Accuracy: 96.5%
-- Repetition: 15
---Constructed labels: VGREEAH8TVRHBYN_UGCOLO4EUERDOOHCIFOMDNU6LQCPKEIREKO1RQIDJXPBKOJDWTEUEWWFOEBHXTQTTZUMO
---True labels       : VGREAAH8TVRHBYN_UGCOLO4EUERDOOHCIFOMDNU6LQCPKEIREKOYRQIDJXPBKOJDWZEUEWWFOEBHXTQTTZUMO
---Accuracy: 96.5%